<?xml version="1.0" standalone="no"?>
 <!DOCTYPE svg PUBLIC "-//W3C//DTD SVG 1.1//EN" 
 "http://www.w3.org/Graphics/SVG/1.1/DTD/svg11.dtd"> 
<svg xmlns="http://www.w3.org/2000/svg" version="1.1" 
    width="29.7002cm" height="21.0007cm" viewBox="0 0 116930 82680 ">
<title>SVG Picture created as Transistor_curve_tracer-F.SilkS.svg date 2020/05/10 00:04:15 </title>
  <desc>Picture generated by PCBNEW </desc>
<g style="fill:#000000; fill-opacity:1;stroke:#000000; stroke-opacity:1;
stroke-linecap:round; stroke-linejoin:round; "
 transform="translate(0 0) scale(1 1)">
</g>
<g style="fill:#000000; fill-opacity:0.0; 
stroke:#000000; stroke-width:-0.000393701; stroke-opacity:1; 
stroke-linecap:round; stroke-linejoin:round;">
</g>
<g style="fill:#000000; fill-opacity:0.0; 
stroke:#000000; stroke-width:39.3701; stroke-opacity:1; 
stroke-linecap:round; stroke-linejoin:round;">
</g>
<g style="fill:#000000; fill-opacity:0.0; 
stroke:#000000; stroke-width:59.0551; stroke-opacity:1; 
stroke-linecap:round; stroke-linejoin:round;">
<rect x="69685.9" y="65357.2" width="42519.7" height="12598.4" rx="0" />
</g>
<g style="fill:#000000; fill-opacity:0.0; 
stroke:#000000; stroke-width:39.3701; stroke-opacity:1; 
stroke-linecap:round; stroke-linejoin:round;">
</g>
<g style="fill:#000000; fill-opacity:0.0; 
stroke:#000000; stroke-width:59.0551; stroke-opacity:1; 
stroke-linecap:round; stroke-linejoin:round;">
<rect x="3937.01" y="3937.01" width="109056" height="74806" rx="0" />
</g>
<g style="fill:#000000; fill-opacity:0.0; 
stroke:#000000; stroke-width:39.3701; stroke-opacity:1; 
stroke-linecap:round; stroke-linejoin:round;">
</g>
<g style="fill:#000000; fill-opacity:0.0; 
stroke:#000000; stroke-width:59.0551; stroke-opacity:1; 
stroke-linecap:round; stroke-linejoin:round;">
<rect x="4724.41" y="4724.41" width="107481" height="73231.2" rx="0" />
</g>
<g style="fill:#000000; fill-opacity:0.0; 
stroke:#000000; stroke-width:39.3701; stroke-opacity:1; 
stroke-linecap:round; stroke-linejoin:round;">
</g>
<g style="fill:#000000; fill-opacity:0.0; 
stroke:#000000; stroke-width:59.0551; stroke-opacity:1; 
stroke-linecap:round; stroke-linejoin:round;">
<path d="M23622 4724
L23622 3937
" />
</g>
<g style="fill:#000000; fill-opacity:0.0; 
stroke:#000000; stroke-width:39.3701; stroke-opacity:1; 
stroke-linecap:round; stroke-linejoin:round;">
</g>
<g style="fill:#000000; fill-opacity:0.0; 
stroke:#000000; stroke-width:59.0551; stroke-opacity:1; 
stroke-linecap:round; stroke-linejoin:round;">
<path d="M43307 4724
L43307 3937
" />
</g>
<g style="fill:#000000; fill-opacity:0.0; 
stroke:#000000; stroke-width:39.3701; stroke-opacity:1; 
stroke-linecap:round; stroke-linejoin:round;">
</g>
<g style="fill:#000000; fill-opacity:0.0; 
stroke:#000000; stroke-width:59.0551; stroke-opacity:1; 
stroke-linecap:round; stroke-linejoin:round;">
<path d="M62992 4724
L62992 3937
" />
</g>
<g style="fill:#000000; fill-opacity:0.0; 
stroke:#000000; stroke-width:39.3701; stroke-opacity:1; 
stroke-linecap:round; stroke-linejoin:round;">
</g>
<g style="fill:#000000; fill-opacity:0.0; 
stroke:#000000; stroke-width:59.0551; stroke-opacity:1; 
stroke-linecap:round; stroke-linejoin:round;">
<path d="M82677 4724
L82677 3937
" />
</g>
<g style="fill:#000000; fill-opacity:0.0; 
stroke:#000000; stroke-width:39.3701; stroke-opacity:1; 
stroke-linecap:round; stroke-linejoin:round;">
</g>
<g style="fill:#000000; fill-opacity:0.0; 
stroke:#000000; stroke-width:59.0551; stroke-opacity:1; 
stroke-linecap:round; stroke-linejoin:round;">
<path d="M102362 4724
L102362 3937
" />
</g>
<g style="fill:#000000; fill-opacity:0.0; 
stroke:#000000; stroke-width:39.3701; stroke-opacity:1; 
stroke-linecap:round; stroke-linejoin:round;">
</g>
<g style="fill:#000000; fill-opacity:0.0; 
stroke:#000000; stroke-width:59.0551; stroke-opacity:1; 
stroke-linecap:round; stroke-linejoin:round;">
<path d="M14199 4562
L13906 4562
" />
<path d="M14052 4562
L14052 4050
L14004 4123
L13955 4172
L13906 4196
" />
</g>
<g style="fill:#000000; fill-opacity:0.0; 
stroke:#000000; stroke-width:39.3701; stroke-opacity:1; 
stroke-linecap:round; stroke-linejoin:round;">
</g>
<g style="fill:#000000; fill-opacity:0.0; 
stroke:#000000; stroke-width:59.0551; stroke-opacity:1; 
stroke-linecap:round; stroke-linejoin:round;">
<path d="M33591 4099
L33615 4074
L33664 4050
L33786 4050
L33835 4074
L33859 4099
L33884 4147
L33884 4196
L33859 4269
L33567 4562
L33884 4562
" />
</g>
<g style="fill:#000000; fill-opacity:0.0; 
stroke:#000000; stroke-width:39.3701; stroke-opacity:1; 
stroke-linecap:round; stroke-linejoin:round;">
</g>
<g style="fill:#000000; fill-opacity:0.0; 
stroke:#000000; stroke-width:59.0551; stroke-opacity:1; 
stroke-linecap:round; stroke-linejoin:round;">
<path d="M53252 4050
L53569 4050
L53398 4245
L53471 4245
L53520 4269
L53544 4294
L53569 4342
L53569 4464
L53544 4513
L53520 4537
L53471 4562
L53325 4562
L53276 4537
L53252 4513
" />
</g>
<g style="fill:#000000; fill-opacity:0.0; 
stroke:#000000; stroke-width:39.3701; stroke-opacity:1; 
stroke-linecap:round; stroke-linejoin:round;">
</g>
<g style="fill:#000000; fill-opacity:0.0; 
stroke:#000000; stroke-width:59.0551; stroke-opacity:1; 
stroke-linecap:round; stroke-linejoin:round;">
<path d="M73205 4221
L73205 4562
" />
<path d="M73083 4026
L72961 4391
L73278 4391
" />
</g>
<g style="fill:#000000; fill-opacity:0.0; 
stroke:#000000; stroke-width:39.3701; stroke-opacity:1; 
stroke-linecap:round; stroke-linejoin:round;">
</g>
<g style="fill:#000000; fill-opacity:0.0; 
stroke:#000000; stroke-width:59.0551; stroke-opacity:1; 
stroke-linecap:round; stroke-linejoin:round;">
<path d="M92914 4050
L92671 4050
L92646 4294
L92671 4269
L92719 4245
L92841 4245
L92890 4269
L92914 4294
L92939 4342
L92939 4464
L92914 4513
L92890 4537
L92841 4562
L92719 4562
L92671 4537
L92646 4513
" />
</g>
<g style="fill:#000000; fill-opacity:0.0; 
stroke:#000000; stroke-width:39.3701; stroke-opacity:1; 
stroke-linecap:round; stroke-linejoin:round;">
</g>
<g style="fill:#000000; fill-opacity:0.0; 
stroke:#000000; stroke-width:59.0551; stroke-opacity:1; 
stroke-linecap:round; stroke-linejoin:round;">
<path d="M112575 4050
L112477 4050
L112429 4074
L112404 4099
L112356 4172
L112331 4269
L112331 4464
L112356 4513
L112380 4537
L112429 4562
L112526 4562
L112575 4537
L112599 4513
L112624 4464
L112624 4342
L112599 4294
L112575 4269
L112526 4245
L112429 4245
L112380 4269
L112356 4294
L112331 4342
" />
</g>
<g style="fill:#000000; fill-opacity:0.0; 
stroke:#000000; stroke-width:39.3701; stroke-opacity:1; 
stroke-linecap:round; stroke-linejoin:round;">
</g>
<g style="fill:#000000; fill-opacity:0.0; 
stroke:#000000; stroke-width:59.0551; stroke-opacity:1; 
stroke-linecap:round; stroke-linejoin:round;">
<path d="M23622 77955
L23622 78742
" />
</g>
<g style="fill:#000000; fill-opacity:0.0; 
stroke:#000000; stroke-width:39.3701; stroke-opacity:1; 
stroke-linecap:round; stroke-linejoin:round;">
</g>
<g style="fill:#000000; fill-opacity:0.0; 
stroke:#000000; stroke-width:59.0551; stroke-opacity:1; 
stroke-linecap:round; stroke-linejoin:round;">
<path d="M43307 77955
L43307 78742
" />
</g>
<g style="fill:#000000; fill-opacity:0.0; 
stroke:#000000; stroke-width:39.3701; stroke-opacity:1; 
stroke-linecap:round; stroke-linejoin:round;">
</g>
<g style="fill:#000000; fill-opacity:0.0; 
stroke:#000000; stroke-width:59.0551; stroke-opacity:1; 
stroke-linecap:round; stroke-linejoin:round;">
<path d="M62992 77955
L62992 78742
" />
</g>
<g style="fill:#000000; fill-opacity:0.0; 
stroke:#000000; stroke-width:39.3701; stroke-opacity:1; 
stroke-linecap:round; stroke-linejoin:round;">
</g>
<g style="fill:#000000; fill-opacity:0.0; 
stroke:#000000; stroke-width:59.0551; stroke-opacity:1; 
stroke-linecap:round; stroke-linejoin:round;">
<path d="M82677 77955
L82677 78742
" />
</g>
<g style="fill:#000000; fill-opacity:0.0; 
stroke:#000000; stroke-width:39.3701; stroke-opacity:1; 
stroke-linecap:round; stroke-linejoin:round;">
</g>
<g style="fill:#000000; fill-opacity:0.0; 
stroke:#000000; stroke-width:59.0551; stroke-opacity:1; 
stroke-linecap:round; stroke-linejoin:round;">
<path d="M102362 77955
L102362 78742
" />
</g>
<g style="fill:#000000; fill-opacity:0.0; 
stroke:#000000; stroke-width:39.3701; stroke-opacity:1; 
stroke-linecap:round; stroke-linejoin:round;">
</g>
<g style="fill:#000000; fill-opacity:0.0; 
stroke:#000000; stroke-width:59.0551; stroke-opacity:1; 
stroke-linecap:round; stroke-linejoin:round;">
<path d="M14199 78580
L13906 78580
" />
<path d="M14052 78580
L14052 78069
L14004 78142
L13955 78190
L13906 78215
" />
</g>
<g style="fill:#000000; fill-opacity:0.0; 
stroke:#000000; stroke-width:39.3701; stroke-opacity:1; 
stroke-linecap:round; stroke-linejoin:round;">
</g>
<g style="fill:#000000; fill-opacity:0.0; 
stroke:#000000; stroke-width:59.0551; stroke-opacity:1; 
stroke-linecap:round; stroke-linejoin:round;">
<path d="M33591 78117
L33615 78093
L33664 78069
L33786 78069
L33835 78093
L33859 78117
L33884 78166
L33884 78215
L33859 78288
L33567 78580
L33884 78580
" />
</g>
<g style="fill:#000000; fill-opacity:0.0; 
stroke:#000000; stroke-width:39.3701; stroke-opacity:1; 
stroke-linecap:round; stroke-linejoin:round;">
</g>
<g style="fill:#000000; fill-opacity:0.0; 
stroke:#000000; stroke-width:59.0551; stroke-opacity:1; 
stroke-linecap:round; stroke-linejoin:round;">
<path d="M53252 78069
L53569 78069
L53398 78263
L53471 78263
L53520 78288
L53544 78312
L53569 78361
L53569 78483
L53544 78532
L53520 78556
L53471 78580
L53325 78580
L53276 78556
L53252 78532
" />
</g>
<g style="fill:#000000; fill-opacity:0.0; 
stroke:#000000; stroke-width:39.3701; stroke-opacity:1; 
stroke-linecap:round; stroke-linejoin:round;">
</g>
<g style="fill:#000000; fill-opacity:0.0; 
stroke:#000000; stroke-width:59.0551; stroke-opacity:1; 
stroke-linecap:round; stroke-linejoin:round;">
<path d="M73205 78239
L73205 78580
" />
<path d="M73083 78044
L72961 78410
L73278 78410
" />
</g>
<g style="fill:#000000; fill-opacity:0.0; 
stroke:#000000; stroke-width:39.3701; stroke-opacity:1; 
stroke-linecap:round; stroke-linejoin:round;">
</g>
<g style="fill:#000000; fill-opacity:0.0; 
stroke:#000000; stroke-width:59.0551; stroke-opacity:1; 
stroke-linecap:round; stroke-linejoin:round;">
<path d="M92914 78069
L92671 78069
L92646 78312
L92671 78288
L92719 78263
L92841 78263
L92890 78288
L92914 78312
L92939 78361
L92939 78483
L92914 78532
L92890 78556
L92841 78580
L92719 78580
L92671 78556
L92646 78532
" />
</g>
<g style="fill:#000000; fill-opacity:0.0; 
stroke:#000000; stroke-width:39.3701; stroke-opacity:1; 
stroke-linecap:round; stroke-linejoin:round;">
</g>
<g style="fill:#000000; fill-opacity:0.0; 
stroke:#000000; stroke-width:59.0551; stroke-opacity:1; 
stroke-linecap:round; stroke-linejoin:round;">
<path d="M112575 78069
L112477 78069
L112429 78093
L112404 78117
L112356 78190
L112331 78288
L112331 78483
L112356 78532
L112380 78556
L112429 78580
L112526 78580
L112575 78556
L112599 78532
L112624 78483
L112624 78361
L112599 78312
L112575 78288
L112526 78263
L112429 78263
L112380 78288
L112356 78312
L112331 78361
" />
</g>
<g style="fill:#000000; fill-opacity:0.0; 
stroke:#000000; stroke-width:39.3701; stroke-opacity:1; 
stroke-linecap:round; stroke-linejoin:round;">
</g>
<g style="fill:#000000; fill-opacity:0.0; 
stroke:#000000; stroke-width:59.0551; stroke-opacity:1; 
stroke-linecap:round; stroke-linejoin:round;">
<path d="M3937 23622
L4724 23622
" />
</g>
<g style="fill:#000000; fill-opacity:0.0; 
stroke:#000000; stroke-width:39.3701; stroke-opacity:1; 
stroke-linecap:round; stroke-linejoin:round;">
</g>
<g style="fill:#000000; fill-opacity:0.0; 
stroke:#000000; stroke-width:59.0551; stroke-opacity:1; 
stroke-linecap:round; stroke-linejoin:round;">
<path d="M3937 43307
L4724 43307
" />
</g>
<g style="fill:#000000; fill-opacity:0.0; 
stroke:#000000; stroke-width:39.3701; stroke-opacity:1; 
stroke-linecap:round; stroke-linejoin:round;">
</g>
<g style="fill:#000000; fill-opacity:0.0; 
stroke:#000000; stroke-width:59.0551; stroke-opacity:1; 
stroke-linecap:round; stroke-linejoin:round;">
<path d="M3937 62992
L4724 62992
" />
</g>
<g style="fill:#000000; fill-opacity:0.0; 
stroke:#000000; stroke-width:39.3701; stroke-opacity:1; 
stroke-linecap:round; stroke-linejoin:round;">
</g>
<g style="fill:#000000; fill-opacity:0.0; 
stroke:#000000; stroke-width:59.0551; stroke-opacity:1; 
stroke-linecap:round; stroke-linejoin:round;">
<path d="M4208 13864
L4452 13864
" />
<path d="M4160 14011
L4330 13499
L4501 14011
" />
</g>
<g style="fill:#000000; fill-opacity:0.0; 
stroke:#000000; stroke-width:39.3701; stroke-opacity:1; 
stroke-linecap:round; stroke-linejoin:round;">
</g>
<g style="fill:#000000; fill-opacity:0.0; 
stroke:#000000; stroke-width:59.0551; stroke-opacity:1; 
stroke-linecap:round; stroke-linejoin:round;">
<path d="M4367 33428
L4440 33452
L4464 33476
L4489 33525
L4489 33598
L4464 33647
L4440 33671
L4391 33696
L4196 33696
L4196 33184
L4367 33184
L4416 33208
L4440 33233
L4464 33281
L4464 33330
L4440 33379
L4416 33403
L4367 33428
L4196 33428
" />
</g>
<g style="fill:#000000; fill-opacity:0.0; 
stroke:#000000; stroke-width:39.3701; stroke-opacity:1; 
stroke-linecap:round; stroke-linejoin:round;">
</g>
<g style="fill:#000000; fill-opacity:0.0; 
stroke:#000000; stroke-width:59.0551; stroke-opacity:1; 
stroke-linecap:round; stroke-linejoin:round;">
<path d="M4489 53332
L4464 53356
L4391 53381
L4342 53381
L4269 53356
L4221 53308
L4196 53259
L4172 53161
L4172 53088
L4196 52991
L4221 52942
L4269 52893
L4342 52869
L4391 52869
L4464 52893
L4489 52918
" />
</g>
<g style="fill:#000000; fill-opacity:0.0; 
stroke:#000000; stroke-width:39.3701; stroke-opacity:1; 
stroke-linecap:round; stroke-linejoin:round;">
</g>
<g style="fill:#000000; fill-opacity:0.0; 
stroke:#000000; stroke-width:59.0551; stroke-opacity:1; 
stroke-linecap:round; stroke-linejoin:round;">
<path d="M4196 73066
L4196 72554
L4318 72554
L4391 72578
L4440 72627
L4464 72676
L4489 72773
L4489 72846
L4464 72944
L4440 72993
L4391 73041
L4318 73066
L4196 73066
" />
</g>
<g style="fill:#000000; fill-opacity:0.0; 
stroke:#000000; stroke-width:39.3701; stroke-opacity:1; 
stroke-linecap:round; stroke-linejoin:round;">
</g>
<g style="fill:#000000; fill-opacity:0.0; 
stroke:#000000; stroke-width:59.0551; stroke-opacity:1; 
stroke-linecap:round; stroke-linejoin:round;">
<path d="M112992 23622
L112205 23622
" />
</g>
<g style="fill:#000000; fill-opacity:0.0; 
stroke:#000000; stroke-width:39.3701; stroke-opacity:1; 
stroke-linecap:round; stroke-linejoin:round;">
</g>
<g style="fill:#000000; fill-opacity:0.0; 
stroke:#000000; stroke-width:59.0551; stroke-opacity:1; 
stroke-linecap:round; stroke-linejoin:round;">
<path d="M112992 43307
L112205 43307
" />
</g>
<g style="fill:#000000; fill-opacity:0.0; 
stroke:#000000; stroke-width:39.3701; stroke-opacity:1; 
stroke-linecap:round; stroke-linejoin:round;">
</g>
<g style="fill:#000000; fill-opacity:0.0; 
stroke:#000000; stroke-width:59.0551; stroke-opacity:1; 
stroke-linecap:round; stroke-linejoin:round;">
<path d="M112992 62992
L112205 62992
" />
</g>
<g style="fill:#000000; fill-opacity:0.0; 
stroke:#000000; stroke-width:39.3701; stroke-opacity:1; 
stroke-linecap:round; stroke-linejoin:round;">
</g>
<g style="fill:#000000; fill-opacity:0.0; 
stroke:#000000; stroke-width:59.0551; stroke-opacity:1; 
stroke-linecap:round; stroke-linejoin:round;">
<path d="M112477 13864
L112721 13864
" />
<path d="M112428 14011
L112599 13499
L112769 14011
" />
</g>
<g style="fill:#000000; fill-opacity:0.0; 
stroke:#000000; stroke-width:39.3701; stroke-opacity:1; 
stroke-linecap:round; stroke-linejoin:round;">
</g>
<g style="fill:#000000; fill-opacity:0.0; 
stroke:#000000; stroke-width:59.0551; stroke-opacity:1; 
stroke-linecap:round; stroke-linejoin:round;">
<path d="M112635 33428
L112708 33452
L112733 33476
L112757 33525
L112757 33598
L112733 33647
L112708 33671
L112660 33696
L112465 33696
L112465 33184
L112635 33184
L112684 33208
L112708 33233
L112733 33281
L112733 33330
L112708 33379
L112684 33403
L112635 33428
L112465 33428
" />
</g>
<g style="fill:#000000; fill-opacity:0.0; 
stroke:#000000; stroke-width:39.3701; stroke-opacity:1; 
stroke-linecap:round; stroke-linejoin:round;">
</g>
<g style="fill:#000000; fill-opacity:0.0; 
stroke:#000000; stroke-width:59.0551; stroke-opacity:1; 
stroke-linecap:round; stroke-linejoin:round;">
<path d="M112757 53332
L112733 53356
L112660 53381
L112611 53381
L112538 53356
L112489 53308
L112465 53259
L112440 53161
L112440 53088
L112465 52991
L112489 52942
L112538 52893
L112611 52869
L112660 52869
L112733 52893
L112757 52918
" />
</g>
<g style="fill:#000000; fill-opacity:0.0; 
stroke:#000000; stroke-width:39.3701; stroke-opacity:1; 
stroke-linecap:round; stroke-linejoin:round;">
</g>
<g style="fill:#000000; fill-opacity:0.0; 
stroke:#000000; stroke-width:59.0551; stroke-opacity:1; 
stroke-linecap:round; stroke-linejoin:round;">
<path d="M112465 73066
L112465 72554
L112587 72554
L112660 72578
L112708 72627
L112733 72676
L112757 72773
L112757 72846
L112733 72944
L112708 72993
L112660 73041
L112587 73066
L112465 73066
" />
</g>
<g style="fill:#000000; fill-opacity:0.0; 
stroke:#000000; stroke-width:39.3701; stroke-opacity:1; 
stroke-linecap:round; stroke-linejoin:round;">
</g>
<g style="fill:#000000; fill-opacity:0.0; 
stroke:#000000; stroke-width:59.0551; stroke-opacity:1; 
stroke-linecap:round; stroke-linejoin:round;">
<path d="M78911 76293
L78911 75703
L79051 75703
L79136 75731
L79192 75787
L79220 75843
L79248 75956
L79248 76040
L79220 76153
L79192 76209
L79136 76265
L79051 76293
L78911 76293
" />
<path d="M79754 76293
L79754 75984
L79726 75928
L79670 75899
L79557 75899
L79501 75928
" />
<path d="M79754 76265
L79698 76293
L79557 76293
L79501 76265
L79473 76209
L79473 76153
L79501 76096
L79557 76068
L79698 76068
L79754 76040
" />
<path d="M79951 75899
L80176 75899
" />
<path d="M80036 75703
L80036 76209
L80064 76265
L80120 76293
L80176 76293
" />
<path d="M80598 76265
L80542 76293
L80429 76293
L80373 76265
L80345 76209
L80345 75984
L80373 75928
L80429 75899
L80542 75899
L80598 75928
L80626 75984
L80626 76040
L80345 76096
" />
<path d="M80879 76237
L80907 76265
L80879 76293
L80851 76265
L80879 76237
L80879 76293
" />
<path d="M80879 75928
L80907 75956
L80879 75984
L80851 75956
L80879 75928
L80879 75984
" />
</g>
<g style="fill:#000000; fill-opacity:0.0; 
stroke:#000000; stroke-width:39.3701; stroke-opacity:1; 
stroke-linecap:round; stroke-linejoin:round;">
</g>
<g style="fill:#000000; fill-opacity:0.0; 
stroke:#000000; stroke-width:59.0551; stroke-opacity:1; 
stroke-linecap:round; stroke-linejoin:round;">
<path d="M69685 76577
L112205 76577
" />
</g>
<g style="fill:#000000; fill-opacity:0.0; 
stroke:#000000; stroke-width:39.3701; stroke-opacity:1; 
stroke-linecap:round; stroke-linejoin:round;">
</g>
<g style="fill:#000000; fill-opacity:0.0; 
stroke:#000000; stroke-width:59.0551; stroke-opacity:1; 
stroke-linecap:round; stroke-linejoin:round;">
<path d="M70249 77395
L70249 76805
" />
<path d="M70587 77395
L70334 77058
" />
<path d="M70587 76805
L70249 77142
" />
<path d="M70840 77395
L70840 77002
" />
<path d="M70840 76805
L70812 76833
L70840 76861
L70868 76833
L70840 76805
L70840 76861
" />
<path d="M71458 77339
L71430 77367
L71346 77395
L71290 77395
L71205 77367
L71149 77311
L71121 77255
L71093 77142
L71093 77058
L71121 76946
L71149 76889
L71205 76833
L71290 76805
L71346 76805
L71430 76833
L71458 76861
" />
<path d="M71965 77395
L71965 77086
L71937 77030
L71880 77002
L71768 77002
L71712 77030
" />
<path d="M71965 77367
L71908 77395
L71768 77395
L71712 77367
L71683 77311
L71683 77255
L71712 77199
L71768 77171
L71908 77171
L71965 77142
" />
<path d="M72499 77395
L72499 76805
" />
<path d="M72499 77367
L72443 77395
L72330 77395
L72274 77367
L72246 77339
L72218 77283
L72218 77114
L72246 77058
L72274 77030
L72330 77002
L72443 77002
L72499 77030
" />
<path d="M73230 77086
L73427 77086
" />
<path d="M73511 77395
L73230 77395
L73230 76805
L73511 76805
" />
<path d="M73764 77339
L73793 77367
L73764 77395
L73736 77367
L73764 77339
L73764 77395
" />
<path d="M74046 77395
L74046 76805
L74186 76805
L74271 76833
L74327 76889
L74355 76946
L74383 77058
L74383 77142
L74355 77255
L74327 77311
L74271 77367
L74186 77395
L74046 77395
" />
<path d="M74636 77339
L74664 77367
L74636 77395
L74608 77367
L74636 77339
L74636 77395
" />
<path d="M74889 77227
L75171 77227
" />
<path d="M74833 77395
L75030 76805
L75227 77395
" />
<path d="M75424 77339
L75452 77367
L75424 77395
L75395 77367
L75424 77339
L75424 77395
" />
<path d="M76605 77395
L76605 76805
" />
<path d="M76661 77171
L76830 77395
" />
<path d="M76830 77002
L76605 77227
" />
<path d="M77083 77395
L77083 77002
" />
<path d="M77083 76805
L77055 76833
L77083 76861
L77111 76833
L77083 76805
L77083 76861
" />
<path d="M77617 77367
L77561 77395
L77448 77395
L77392 77367
L77364 77339
L77336 77283
L77336 77114
L77364 77058
L77392 77030
L77448 77002
L77561 77002
L77617 77030
" />
<path d="M78123 77395
L78123 77086
L78095 77030
L78039 77002
L77926 77002
L77870 77030
" />
<path d="M78123 77367
L78067 77395
L77926 77395
L77870 77367
L77842 77311
L77842 77255
L77870 77199
L77926 77171
L78067 77171
L78123 77142
" />
<path d="M78658 77395
L78658 76805
" />
<path d="M78658 77367
L78601 77395
L78489 77395
L78433 77367
L78404 77339
L78376 77283
L78376 77114
L78404 77058
L78433 77030
L78489 77002
L78601 77002
L78658 77030
" />
<path d="M79670 76805
L79389 76805
L79361 77086
L79389 77058
L79445 77030
L79586 77030
L79642 77058
L79670 77086
L79698 77142
L79698 77283
L79670 77339
L79642 77367
L79586 77395
L79445 77395
L79389 77367
L79361 77339
" />
<path d="M79951 77339
L79979 77367
L79951 77395
L79923 77367
L79951 77339
L79951 77395
" />
<path d="M80345 76805
L80401 76805
L80457 76833
L80485 76861
L80514 76917
L80542 77030
L80542 77171
L80514 77283
L80485 77339
L80457 77367
L80401 77395
L80345 77395
L80289 77367
L80260 77339
L80232 77283
L80204 77171
L80204 77030
L80232 76917
L80260 76861
L80289 76833
L80345 76805
" />
<path d="M80795 77339
L80823 77367
L80795 77395
L80767 77367
L80795 77339
L80795 77395
" />
<path d="M81048 76861
L81076 76833
L81132 76805
L81273 76805
L81329 76833
L81357 76861
L81385 76917
L81385 76974
L81357 77058
L81020 77395
L81385 77395
" />
</g>
<g style="fill:#000000; fill-opacity:0.0; 
stroke:#000000; stroke-width:39.3701; stroke-opacity:1; 
stroke-linecap:round; stroke-linejoin:round;">
</g>
<g style="fill:#000000; fill-opacity:0.0; 
stroke:#000000; stroke-width:59.0551; stroke-opacity:1; 
stroke-linecap:round; stroke-linejoin:round;">
<path d="M69685 75396
L112205 75396
" />
</g>
<g style="fill:#000000; fill-opacity:0.0; 
stroke:#000000; stroke-width:39.3701; stroke-opacity:1; 
stroke-linecap:round; stroke-linejoin:round;">
</g>
<g style="fill:#000000; fill-opacity:0.0; 
stroke:#000000; stroke-width:118.11; stroke-opacity:1; 
stroke-linecap:round; stroke-linejoin:round;">
<path d="M104099 76293
L103902 76012
" />
<path d="M103761 76293
L103761 75703
L103986 75703
L104042 75731
L104070 75759
L104099 75815
L104099 75899
L104070 75956
L104042 75984
L103986 76012
L103761 76012
" />
<path d="M104577 76265
L104520 76293
L104408 76293
L104352 76265
L104323 76209
L104323 75984
L104352 75928
L104408 75899
L104520 75899
L104577 75928
L104605 75984
L104605 76040
L104323 76096
" />
<path d="M104802 75899
L104942 76293
L105083 75899
" />
<path d="M105308 76237
L105336 76265
L105308 76293
L105280 76265
L105308 76237
L105308 76293
" />
<path d="M105308 75928
L105336 75956
L105308 75984
L105280 75956
L105308 75928
L105308 75984
" />
</g>
<g style="fill:#000000; fill-opacity:0.0; 
stroke:#000000; stroke-width:39.3701; stroke-opacity:1; 
stroke-linecap:round; stroke-linejoin:round;">
</g>
<g style="fill:#000000; fill-opacity:0.0; 
stroke:#000000; stroke-width:59.0551; stroke-opacity:1; 
stroke-linecap:round; stroke-linejoin:round;">
<path d="M70221 76265
L70305 76293
L70446 76293
L70502 76265
L70530 76237
L70559 76181
L70559 76124
L70530 76068
L70502 76040
L70446 76012
L70334 75984
L70277 75956
L70249 75928
L70221 75871
L70221 75815
L70249 75759
L70277 75731
L70334 75703
L70474 75703
L70559 75731
" />
<path d="M70812 76293
L70812 75899
" />
<path d="M70812 75703
L70784 75731
L70812 75759
L70840 75731
L70812 75703
L70812 75759
" />
<path d="M71037 75899
L71346 75899
L71037 76293
L71346 76293
" />
<path d="M71796 76265
L71740 76293
L71627 76293
L71571 76265
L71543 76209
L71543 75984
L71571 75928
L71627 75899
L71740 75899
L71796 75928
L71824 75984
L71824 76040
L71543 76096
" />
<path d="M72077 76237
L72105 76265
L72077 76293
L72049 76265
L72077 76237
L72077 76293
" />
<path d="M72077 75928
L72105 75956
L72077 75984
L72049 75956
L72077 75928
L72077 75984
" />
<path d="M72780 76124
L73061 76124
" />
<path d="M72724 76293
L72921 75703
L73118 76293
" />
<path d="M73568 75899
L73568 76293
" />
<path d="M73427 75674
L73286 76096
L73652 76096
" />
</g>
<g style="fill:#000000; fill-opacity:0.0; 
stroke:#000000; stroke-width:39.3701; stroke-opacity:1; 
stroke-linecap:round; stroke-linejoin:round;">
</g>
<g style="fill:#000000; fill-opacity:0.0; 
stroke:#000000; stroke-width:59.0551; stroke-opacity:1; 
stroke-linecap:round; stroke-linejoin:round;">
<path d="M103714 77395
L103714 76805
" />
<path d="M104248 77395
L104248 76805
" />
<path d="M104248 77367
L104192 77395
L104079 77395
L104023 77367
L103995 77339
L103967 77283
L103967 77114
L103995 77058
L104023 77030
L104079 77002
L104192 77002
L104248 77030
" />
<path d="M104529 77339
L104557 77367
L104529 77395
L104501 77367
L104529 77339
L104529 77395
" />
<path d="M104529 77030
L104557 77058
L104529 77086
L104501 77058
L104529 77030
L104529 77086
" />
<path d="M105570 77395
L105232 77395
" />
<path d="M105401 77395
L105401 76805
L105345 76889
L105289 76946
L105232 76974
" />
<path d="M106245 76777
L105739 77536
" />
<path d="M106751 77395
L106413 77395
" />
<path d="M106582 77395
L106582 76805
L106526 76889
L106470 76946
L106413 76974
" />
</g>
<g style="fill:#000000; fill-opacity:0.0; 
stroke:#000000; stroke-width:39.3701; stroke-opacity:1; 
stroke-linecap:round; stroke-linejoin:round;">
</g>
<g style="fill:#000000; fill-opacity:0.0; 
stroke:#000000; stroke-width:59.0551; stroke-opacity:1; 
stroke-linecap:round; stroke-linejoin:round;">
<path d="M69685 73821
L112205 73821
" />
</g>
<g style="fill:#000000; fill-opacity:0.0; 
stroke:#000000; stroke-width:39.3701; stroke-opacity:1; 
stroke-linecap:round; stroke-linejoin:round;">
</g>
<g style="fill:#000000; fill-opacity:0.0; 
stroke:#000000; stroke-width:157.48; stroke-opacity:1; 
stroke-linecap:round; stroke-linejoin:round;">
<path d="M70360 74099
L70810 74099
" />
<path d="M70486 74886
L70585 74099
" />
<path d="M70974 74886
L71039 74361
" />
<path d="M71072 74099
L71030 74136
L71063 74174
L71105 74136
L71072 74099
L71063 74174
" />
<path d="M71302 74361
L71602 74361
" />
<path d="M71447 74099
L71363 74774
L71391 74849
L71461 74886
L71536 74886
" />
<path d="M71911 74886
L71841 74849
L71813 74774
L71897 74099
" />
<path d="M72516 74849
L72436 74886
L72286 74886
L72216 74849
L72187 74774
L72225 74474
L72272 74399
L72352 74361
L72501 74361
L72572 74399
L72600 74474
L72591 74549
L72206 74624
" />
<path d="M72895 74811
L72928 74849
L72886 74886
L72853 74849
L72895 74811
L72886 74886
" />
<path d="M72947 74399
L72980 74436
L72937 74474
L72905 74436
L72947 74399
L72937 74474
" />
</g>
<g style="fill:#000000; fill-opacity:0.0; 
stroke:#000000; stroke-width:39.3701; stroke-opacity:1; 
stroke-linecap:round; stroke-linejoin:round;">
</g>
<g style="fill:#000000; fill-opacity:0.0; 
stroke:#000000; stroke-width:59.0551; stroke-opacity:1; 
stroke-linecap:round; stroke-linejoin:round;">
<path d="M70446 73070
L70249 73070
" />
<path d="M70249 73380
L70249 72789
L70530 72789
" />
<path d="M70755 73380
L70755 72986
" />
<path d="M70755 72789
L70727 72817
L70755 72845
L70784 72817
L70755 72789
L70755 72845
" />
<path d="M71121 73380
L71065 73352
L71037 73295
L71037 72789
" />
<path d="M71571 73352
L71515 73380
L71402 73380
L71346 73352
L71318 73295
L71318 73070
L71346 73014
L71402 72986
L71515 72986
L71571 73014
L71599 73070
L71599 73127
L71318 73183
" />
<path d="M71852 73323
L71880 73352
L71852 73380
L71824 73352
L71852 73323
L71852 73380
" />
<path d="M71852 73014
L71880 73042
L71852 73070
L71824 73042
L71852 73014
L71852 73070
" />
<path d="M72499 72789
L72836 72789
" />
<path d="M72668 73380
L72668 72789
" />
<path d="M73033 73380
L73033 72986
" />
<path d="M73033 73099
L73061 73042
L73090 73014
L73146 72986
L73202 72986
" />
<path d="M73652 73380
L73652 73070
L73624 73014
L73568 72986
L73455 72986
L73399 73014
" />
<path d="M73652 73352
L73596 73380
L73455 73380
L73399 73352
L73371 73295
L73371 73239
L73399 73183
L73455 73155
L73596 73155
L73652 73127
" />
<path d="M73933 72986
L73933 73380
" />
<path d="M73933 73042
L73961 73014
L74018 72986
L74102 72986
L74158 73014
L74186 73070
L74186 73380
" />
<path d="M74439 73352
L74496 73380
L74608 73380
L74664 73352
L74692 73295
L74692 73267
L74664 73211
L74608 73183
L74524 73183
L74467 73155
L74439 73099
L74439 73070
L74467 73014
L74524 72986
L74608 72986
L74664 73014
" />
<path d="M74946 73380
L74946 72986
" />
<path d="M74946 72789
L74917 72817
L74946 72845
L74974 72817
L74946 72789
L74946 72845
" />
<path d="M75199 73352
L75255 73380
L75367 73380
L75424 73352
L75452 73295
L75452 73267
L75424 73211
L75367 73183
L75283 73183
L75227 73155
L75199 73099
L75199 73070
L75227 73014
L75283 72986
L75367 72986
L75424 73014
" />
<path d="M75620 72986
L75845 72986
" />
<path d="M75705 72789
L75705 73295
L75733 73352
L75789 73380
L75845 73380
" />
<path d="M76127 73380
L76070 73352
L76042 73323
L76014 73267
L76014 73099
L76042 73042
L76070 73014
L76127 72986
L76211 72986
L76267 73014
L76295 73042
L76323 73099
L76323 73267
L76295 73323
L76267 73352
L76211 73380
L76127 73380
" />
<path d="M76577 73380
L76577 72986
" />
<path d="M76577 73099
L76605 73042
L76633 73014
L76689 72986
L76745 72986
" />
<path d="M76802 73436
L77251 73436
" />
<path d="M77645 73352
L77589 73380
L77476 73380
L77420 73352
L77392 73323
L77364 73267
L77364 73099
L77392 73042
L77420 73014
L77476 72986
L77589 72986
L77645 73014
" />
<path d="M78151 72986
L78151 73380
" />
<path d="M77898 72986
L77898 73295
L77926 73352
L77983 73380
L78067 73380
L78123 73352
L78151 73323
" />
<path d="M78433 73380
L78433 72986
" />
<path d="M78433 73099
L78461 73042
L78489 73014
L78545 72986
L78601 72986
" />
<path d="M78742 72986
L78883 73380
L79023 72986
" />
<path d="M79473 73352
L79417 73380
L79304 73380
L79248 73352
L79220 73295
L79220 73070
L79248 73014
L79304 72986
L79417 72986
L79473 73014
L79501 73070
L79501 73127
L79220 73183
" />
<path d="M79614 73436
L80064 73436
" />
<path d="M80120 72986
L80345 72986
" />
<path d="M80204 72789
L80204 73295
L80232 73352
L80289 73380
L80345 73380
" />
<path d="M80542 73380
L80542 72986
" />
<path d="M80542 73099
L80570 73042
L80598 73014
L80654 72986
L80710 72986
" />
<path d="M81160 73380
L81160 73070
L81132 73014
L81076 72986
L80964 72986
L80907 73014
" />
<path d="M81160 73352
L81104 73380
L80964 73380
L80907 73352
L80879 73295
L80879 73239
L80907 73183
L80964 73155
L81104 73155
L81160 73127
" />
<path d="M81695 73352
L81638 73380
L81526 73380
L81470 73352
L81442 73323
L81413 73267
L81413 73099
L81442 73042
L81470 73014
L81526 72986
L81638 72986
L81695 73014
" />
<path d="M82173 73352
L82117 73380
L82004 73380
L81948 73352
L81920 73295
L81920 73070
L81948 73014
L82004 72986
L82117 72986
L82173 73014
L82201 73070
L82201 73127
L81920 73183
" />
<path d="M82454 73380
L82454 72986
" />
<path d="M82454 73099
L82482 73042
L82510 73014
L82566 72986
L82623 72986
" />
<path d="M82820 73323
L82848 73352
L82820 73380
L82791 73352
L82820 73323
L82820 73380
" />
<path d="M83101 73380
L83101 72789
" />
<path d="M83157 73155
L83326 73380
" />
<path d="M83326 72986
L83101 73211
" />
<path d="M83579 73380
L83579 72986
" />
<path d="M83579 72789
L83551 72817
L83579 72845
L83607 72817
L83579 72789
L83579 72845
" />
<path d="M84113 73352
L84057 73380
L83944 73380
L83888 73352
L83860 73323
L83832 73267
L83832 73099
L83860 73042
L83888 73014
L83944 72986
L84057 72986
L84113 73014
" />
<path d="M84619 73380
L84619 73070
L84591 73014
L84535 72986
L84422 72986
L84366 73014
" />
<path d="M84619 73352
L84563 73380
L84422 73380
L84366 73352
L84338 73295
L84338 73239
L84366 73183
L84422 73155
L84563 73155
L84619 73127
" />
<path d="M85154 73380
L85154 72789
" />
<path d="M85154 73352
L85097 73380
L84985 73380
L84929 73352
L84901 73323
L84872 73267
L84872 73099
L84901 73042
L84929 73014
L84985 72986
L85097 72986
L85154 73014
" />
<path d="M85294 73436
L85744 73436
" />
<path d="M85885 72986
L85885 73577
" />
<path d="M85885 73014
L85941 72986
L86054 72986
L86110 73014
L86138 73042
L86166 73099
L86166 73267
L86138 73323
L86110 73352
L86054 73380
L85941 73380
L85885 73352
" />
<path d="M86672 73352
L86616 73380
L86503 73380
L86447 73352
L86419 73323
L86391 73267
L86391 73099
L86419 73042
L86447 73014
L86503 72986
L86616 72986
L86672 73014
" />
<path d="M86925 73380
L86925 72789
" />
<path d="M86925 73014
L86982 72986
L87094 72986
L87150 73014
L87178 73042
L87206 73099
L87206 73267
L87178 73323
L87150 73352
L87094 73380
L86982 73380
L86925 73352
" />
</g>
<g style="fill:#000000; fill-opacity:0.0; 
stroke:#000000; stroke-width:39.3701; stroke-opacity:1; 
stroke-linecap:round; stroke-linejoin:round;">
</g>
<g style="fill:#000000; fill-opacity:0.0; 
stroke:#000000; stroke-width:59.0551; stroke-opacity:1; 
stroke-linecap:round; stroke-linejoin:round;">
<path d="M69685 71459
L112205 71459
" />
</g>
<g style="fill:#000000; fill-opacity:0.0; 
stroke:#000000; stroke-width:39.3701; stroke-opacity:1; 
stroke-linecap:round; stroke-linejoin:round;">
</g>
<g style="fill:#000000; fill-opacity:0.0; 
stroke:#000000; stroke-width:59.0551; stroke-opacity:1; 
stroke-linecap:round; stroke-linejoin:round;">
<path d="M70221 72289
L70305 72317
L70446 72317
L70502 72289
L70530 72260
L70559 72204
L70559 72148
L70530 72092
L70502 72064
L70446 72036
L70334 72007
L70277 71979
L70249 71951
L70221 71895
L70221 71839
L70249 71782
L70277 71754
L70334 71726
L70474 71726
L70559 71754
" />
<path d="M70812 72317
L70812 71726
" />
<path d="M71065 72317
L71065 72007
L71037 71951
L70980 71923
L70896 71923
L70840 71951
L70812 71979
" />
<path d="M71571 72289
L71515 72317
L71402 72317
L71346 72289
L71318 72232
L71318 72007
L71346 71951
L71402 71923
L71515 71923
L71571 71951
L71599 72007
L71599 72064
L71318 72120
" />
<path d="M72077 72289
L72021 72317
L71908 72317
L71852 72289
L71824 72232
L71824 72007
L71852 71951
L71908 71923
L72021 71923
L72077 71951
L72105 72007
L72105 72064
L71824 72120
" />
<path d="M72274 71923
L72499 71923
" />
<path d="M72358 71726
L72358 72232
L72386 72289
L72443 72317
L72499 72317
" />
<path d="M72696 72260
L72724 72289
L72696 72317
L72668 72289
L72696 72260
L72696 72317
" />
<path d="M72696 71951
L72724 71979
L72696 72007
L72668 71979
L72696 71951
L72696 72007
" />
</g>
<g style="fill:#000000; fill-opacity:0.0; 
stroke:#000000; stroke-width:39.3701; stroke-opacity:1; 
stroke-linecap:round; stroke-linejoin:round;">
</g>
<g style="fill:#000000; fill-opacity:0.0; 
stroke:#000000; stroke-width:59.0551; stroke-opacity:1; 
stroke-linecap:round; stroke-linejoin:round;">
<path d="M77559 75396
L77559 76577
" />
</g>
<g style="fill:#000000; fill-opacity:0.0; 
stroke:#000000; stroke-width:39.3701; stroke-opacity:1; 
stroke-linecap:round; stroke-linejoin:round;">
</g>
<g style="fill:#000000; fill-opacity:0.0; 
stroke:#000000; stroke-width:59.0551; stroke-opacity:1; 
stroke-linecap:round; stroke-linejoin:round;">
<path d="M102756 75396
L102756 77955
" />
</g>
<g style="fill:#008484; fill-opacity:0.0; 
stroke:#008484; stroke-width:59.0551; stroke-opacity:1; 
stroke-linecap:round; stroke-linejoin:round;">
</g>
<g style="fill:#008484; fill-opacity:0.0; 
stroke:#008484; stroke-width:47.2441; stroke-opacity:1; 
stroke-linecap:round; stroke-linejoin:round;">
<path d="M49700 26664
L49700 26535
" />
<path d="M49299 26664
L49299 26535
" />
<circle cx="43300" cy="25507.9" r="1622.05" /> 
<path d="M41693 25507
L44906 25507
" />
<path d="M41693 25492
L44906 25492
" />
<path d="M41693 25476
L44906 25476
" />
<path d="M41694 25460
L44905 25460
" />
<path d="M41694 25444
L44905 25444
" />
<path d="M41695 25429
L44904 25429
" />
<path d="M41696 25413
L42890 25413
" />
<path d="M43709 25413
L44903 25413
" />
<path d="M41697 25397
L42890 25397
" />
<path d="M43709 25397
L44902 25397
" />
<path d="M41698 25381
L42890 25381
" />
<path d="M43709 25381
L44901 25381
" />
<path d="M41699 25366
L42890 25366
" />
<path d="M43709 25366
L44900 25366
" />
<path d="M41701 25350
L42890 25350
" />
<path d="M43709 25350
L44898 25350
" />
<path d="M41702 25334
L42890 25334
" />
<path d="M43709 25334
L44897 25334
" />
<path d="M41704 25318
L42890 25318
" />
<path d="M43709 25318
L44895 25318
" />
<path d="M41706 25303
L42890 25303
" />
<path d="M43709 25303
L44893 25303
" />
<path d="M41708 25287
L42890 25287
" />
<path d="M43709 25287
L44891 25287
" />
<path d="M41710 25271
L42890 25271
" />
<path d="M43709 25271
L44889 25271
" />
<path d="M41713 25255
L42890 25255
" />
<path d="M43709 25255
L44886 25255
" />
<path d="M41715 25240
L42890 25240
" />
<path d="M43709 25240
L44884 25240
" />
<path d="M41718 25224
L42890 25224
" />
<path d="M43709 25224
L44881 25224
" />
<path d="M41721 25208
L42890 25208
" />
<path d="M43709 25208
L44878 25208
" />
<path d="M41724 25192
L42890 25192
" />
<path d="M43709 25192
L44875 25192
" />
<path d="M41727 25176
L42890 25176
" />
<path d="M43709 25176
L44872 25176
" />
<path d="M41731 25161
L42890 25161
" />
<path d="M43709 25161
L44868 25161
" />
<path d="M41734 25145
L42890 25145
" />
<path d="M43709 25145
L44865 25145
" />
<path d="M41738 25129
L42890 25129
" />
<path d="M43709 25129
L44861 25129
" />
<path d="M41742 25113
L42890 25113
" />
<path d="M43709 25113
L44857 25113
" />
<path d="M41746 25098
L42890 25098
" />
<path d="M43709 25098
L44853 25098
" />
<path d="M41750 25082
L42890 25082
" />
<path d="M43709 25082
L44849 25082
" />
<path d="M41754 25066
L42890 25066
" />
<path d="M43709 25066
L44845 25066
" />
<path d="M41759 25050
L42890 25050
" />
<path d="M43709 25050
L44840 25050
" />
<path d="M41763 25035
L42890 25035
" />
<path d="M43709 25035
L44836 25035
" />
<path d="M41768 25019
L42890 25019
" />
<path d="M43709 25019
L44831 25019
" />
<path d="M41773 25003
L42890 25003
" />
<path d="M43709 25003
L44826 25003
" />
<path d="M41779 24987
L42890 24987
" />
<path d="M43709 24987
L44820 24987
" />
<path d="M41784 24972
L42890 24972
" />
<path d="M43709 24972
L44815 24972
" />
<path d="M41790 24956
L42890 24956
" />
<path d="M43709 24956
L44809 24956
" />
<path d="M41795 24940
L42890 24940
" />
<path d="M43709 24940
L44804 24940
" />
<path d="M41801 24924
L42890 24924
" />
<path d="M43709 24924
L44798 24924
" />
<path d="M41807 24909
L42890 24909
" />
<path d="M43709 24909
L44792 24909
" />
<path d="M41814 24893
L42890 24893
" />
<path d="M43709 24893
L44785 24893
" />
<path d="M41820 24877
L42890 24877
" />
<path d="M43709 24877
L44779 24877
" />
<path d="M41827 24861
L42890 24861
" />
<path d="M43709 24861
L44772 24861
" />
<path d="M41834 24846
L42890 24846
" />
<path d="M43709 24846
L44765 24846
" />
<path d="M41841 24830
L42890 24830
" />
<path d="M43709 24830
L44758 24830
" />
<path d="M41848 24814
L42890 24814
" />
<path d="M43709 24814
L44751 24814
" />
<path d="M41856 24798
L42890 24798
" />
<path d="M43709 24798
L44743 24798
" />
<path d="M41864 24783
L42890 24783
" />
<path d="M43709 24783
L44735 24783
" />
<path d="M41872 24767
L42890 24767
" />
<path d="M43709 24767
L44727 24767
" />
<path d="M41880 24751
L42890 24751
" />
<path d="M43709 24751
L44719 24751
" />
<path d="M41888 24735
L42890 24735
" />
<path d="M43709 24735
L44711 24735
" />
<path d="M41897 24720
L42890 24720
" />
<path d="M43709 24720
L44702 24720
" />
<path d="M41906 24704
L42890 24704
" />
<path d="M43709 24704
L44693 24704
" />
<path d="M41915 24688
L42890 24688
" />
<path d="M43709 24688
L44684 24688
" />
<path d="M41924 24672
L42890 24672
" />
<path d="M43709 24672
L44675 24672
" />
<path d="M41934 24657
L42890 24657
" />
<path d="M43709 24657
L44665 24657
" />
<path d="M41944 24641
L42890 24641
" />
<path d="M43709 24641
L44655 24641
" />
<path d="M41954 24625
L42890 24625
" />
<path d="M43709 24625
L44645 24625
" />
<path d="M41964 24609
L42890 24609
" />
<path d="M43709 24609
L44635 24609
" />
<path d="M41975 24594
L44624 24594
" />
<path d="M41985 24578
L44614 24578
" />
<path d="M41997 24562
L44602 24562
" />
<path d="M42008 24546
L44591 24546
" />
<path d="M42020 24531
L44579 24531
" />
<path d="M42032 24515
L44567 24515
" />
<path d="M42044 24499
L44555 24499
" />
<path d="M42057 24483
L44542 24483
" />
<path d="M42070 24468
L44529 24468
" />
<path d="M42083 24452
L44516 24452
" />
<path d="M42097 24436
L44502 24436
" />
<path d="M42111 24420
L44488 24420
" />
<path d="M42125 24405
L44474 24405
" />
<path d="M42140 24389
L44459 24389
" />
<path d="M42155 24373
L44444 24373
" />
<path d="M42171 24357
L44428 24357
" />
<path d="M42187 24342
L44412 24342
" />
<path d="M42203 24326
L44396 24326
" />
<path d="M42220 24310
L44379 24310
" />
<path d="M42238 24294
L44361 24294
" />
<path d="M42256 24279
L44343 24279
" />
<path d="M42274 24263
L44325 24263
" />
<path d="M42293 24247
L44306 24247
" />
<path d="M42313 24231
L44286 24231
" />
<path d="M42333 24216
L44266 24216
" />
<path d="M42355 24200
L44244 24200
" />
<path d="M42376 24184
L44223 24184
" />
<path d="M42399 24168
L44200 24168
" />
<path d="M42422 24153
L44177 24153
" />
<path d="M42447 24137
L44152 24137
" />
<path d="M42472 24121
L44127 24121
" />
<path d="M42499 24105
L44100 24105
" />
<path d="M42526 24090
L44073 24090
" />
<path d="M42555 24074
L44044 24074
" />
<path d="M42586 24058
L44013 24058
" />
<path d="M42618 24042
L43981 24042
" />
<path d="M42652 24027
L43947 24027
" />
<path d="M42688 24011
L43911 24011
" />
<path d="M42727 23995
L43872 23995
" />
<path d="M42770 23979
L43829 23979
" />
<path d="M42816 23964
L43783 23964
" />
<path d="M42867 23948
L43732 23948
" />
<path d="M42926 23932
L43673 23932
" />
<path d="M42997 23916
L43602 23916
" />
<path d="M43090 23901
L43509 23901
" />
<path d="M42388 27243
L42388 26929
" />
<path d="M42231 27086
L42546 27086
" />
<circle cx="43300" cy="28404.7" r="834.646" /> 
<path d="M43630 28404
L44118 28404
" />
<path d="M42481 28404
L42969 28404
" />
<path d="M43630 28388
L44118 28388
" />
<path d="M42481 28388
L42969 28388
" />
<path d="M43630 28373
L44118 28373
" />
<path d="M42481 28373
L42969 28373
" />
<path d="M42482 28357
L42969 28357
" />
<path d="M43630 28357
L44117 28357
" />
<path d="M42483 28341
L42969 28341
" />
<path d="M43630 28341
L44116 28341
" />
<path d="M42484 28325
L42969 28325
" />
<path d="M43630 28325
L44115 28325
" />
<path d="M42486 28310
L42969 28310
" />
<path d="M43630 28310
L44113 28310
" />
<path d="M42488 28294
L42969 28294
" />
<path d="M43630 28294
L44111 28294
" />
<path d="M42490 28278
L42969 28278
" />
<path d="M43630 28278
L44109 28278
" />
<path d="M42492 28262
L42969 28262
" />
<path d="M43630 28262
L44107 28262
" />
<path d="M42496 28247
L42969 28247
" />
<path d="M43630 28247
L44103 28247
" />
<path d="M42499 28231
L42969 28231
" />
<path d="M43630 28231
L44100 28231
" />
<path d="M42502 28215
L42969 28215
" />
<path d="M43630 28215
L44097 28215
" />
<path d="M42506 28200
L42969 28200
" />
<path d="M43630 28200
L44093 28200
" />
<path d="M42510 28184
L42969 28184
" />
<path d="M43630 28184
L44089 28184
" />
<path d="M42514 28168
L42969 28168
" />
<path d="M43630 28168
L44085 28168
" />
<path d="M42519 28152
L42969 28152
" />
<path d="M43630 28152
L44080 28152
" />
<path d="M42525 28137
L42969 28137
" />
<path d="M43630 28137
L44074 28137
" />
<path d="M42530 28120
L42969 28120
" />
<path d="M43630 28120
L44069 28120
" />
<path d="M42536 28105
L42969 28105
" />
<path d="M43630 28105
L44063 28105
" />
<path d="M42542 28089
L42969 28089
" />
<path d="M43630 28089
L44057 28089
" />
<path d="M42549 28073
L42969 28073
" />
<path d="M43630 28073
L44050 28073
" />
<path d="M42556 28057
L42969 28057
" />
<path d="M43630 28057
L44043 28057
" />
<path d="M42563 28042
L42969 28042
" />
<path d="M43630 28042
L44036 28042
" />
<path d="M42571 28026
L42969 28026
" />
<path d="M43630 28026
L44028 28026
" />
<path d="M42579 28010
L42969 28010
" />
<path d="M43630 28010
L44020 28010
" />
<path d="M42588 27994
L42969 27994
" />
<path d="M43630 27994
L44011 27994
" />
<path d="M42597 27979
L42969 27979
" />
<path d="M43630 27979
L44002 27979
" />
<path d="M42607 27963
L42969 27963
" />
<path d="M43630 27963
L43992 27963
" />
<path d="M42616 27947
L42969 27947
" />
<path d="M43630 27947
L43983 27947
" />
<path d="M42627 27931
L42969 27931
" />
<path d="M43630 27931
L43972 27931
" />
<path d="M42638 27916
L42969 27916
" />
<path d="M43630 27916
L43961 27916
" />
<path d="M42650 27900
L42969 27900
" />
<path d="M43630 27900
L43949 27900
" />
<path d="M42662 27884
L42969 27884
" />
<path d="M43630 27884
L43937 27884
" />
<path d="M42675 27868
L42969 27868
" />
<path d="M43630 27868
L43924 27868
" />
<path d="M42688 27853
L42969 27853
" />
<path d="M43630 27853
L43911 27853
" />
<path d="M42703 27837
L42969 27837
" />
<path d="M43630 27837
L43896 27837
" />
<path d="M42718 27821
L42969 27821
" />
<path d="M43630 27821
L43881 27821
" />
<path d="M42733 27805
L42969 27805
" />
<path d="M43630 27805
L43866 27805
" />
<path d="M42750 27790
L42969 27790
" />
<path d="M43630 27790
L43849 27790
" />
<path d="M42768 27774
L43831 27774
" />
<path d="M42786 27758
L43813 27758
" />
<path d="M42806 27742
L43793 27742
" />
<path d="M42827 27727
L43772 27727
" />
<path d="M42850 27711
L43749 27711
" />
<path d="M42874 27695
L43725 27695
" />
<path d="M42901 27679
L43698 27679
" />
<path d="M42929 27664
L43670 27664
" />
<path d="M42961 27648
L43638 27648
" />
<path d="M42997 27632
L43602 27632
" />
<path d="M43038 27616
L43561 27616
" />
<path d="M43088 27601
L43511 27601
" />
<path d="M43154 27585
L43445 27585
" />
<path d="M42829 29298
L42829 29140
" />
<path d="M42750 29219
L42908 29219
" />
<circle cx="47692.1" cy="14900" r="1287.4" /> 
<path d="M47692 13628
L47692 16171
" />
<path d="M47707 13628
L47707 16171
" />
<path d="M47723 13628
L47723 16171
" />
<path d="M47739 13629
L47739 16170
" />
<path d="M47755 13629
L47755 16170
" />
<path d="M47770 13630
L47770 16169
" />
<path d="M47786 13631
L47786 14490
" />
<path d="M47786 15309
L47786 16168
" />
<path d="M47802 13633
L47802 14490
" />
<path d="M47802 15309
L47802 16166
" />
<path d="M47818 13634
L47818 14490
" />
<path d="M47818 15309
L47818 16165
" />
<path d="M47833 13635
L47833 14490
" />
<path d="M47833 15309
L47833 16164
" />
<path d="M47849 13637
L47849 14490
" />
<path d="M47849 15309
L47849 16162
" />
<path d="M47865 13639
L47865 14490
" />
<path d="M47865 15309
L47865 16160
" />
<path d="M47881 13642
L47881 14490
" />
<path d="M47881 15309
L47881 16157
" />
<path d="M47896 13644
L47896 14490
" />
<path d="M47896 15309
L47896 16155
" />
<path d="M47912 13647
L47912 14490
" />
<path d="M47912 15309
L47912 16152
" />
<path d="M47928 13650
L47928 14490
" />
<path d="M47928 15309
L47928 16150
" />
<path d="M47944 13653
L47944 14490
" />
<path d="M47944 15309
L47944 16146
" />
<path d="M47959 13656
L47959 14490
" />
<path d="M47959 15309
L47959 16143
" />
<path d="M47975 13659
L47975 14490
" />
<path d="M47975 15309
L47975 16140
" />
<path d="M47991 13663
L47991 14490
" />
<path d="M47991 15309
L47991 16136
" />
<path d="M48007 13667
L48007 14490
" />
<path d="M48007 15309
L48007 16132
" />
<path d="M48023 13671
L48023 14490
" />
<path d="M48023 15309
L48023 16128
" />
<path d="M48038 13675
L48038 14490
" />
<path d="M48038 15309
L48038 16124
" />
<path d="M48054 13680
L48054 14490
" />
<path d="M48054 15309
L48054 16119
" />
<path d="M48070 13685
L48070 14490
" />
<path d="M48070 15309
L48070 16114
" />
<path d="M48086 13689
L48086 14490
" />
<path d="M48086 15309
L48086 16110
" />
<path d="M48101 13694
L48101 14490
" />
<path d="M48101 15309
L48101 16105
" />
<path d="M48117 13700
L48117 14490
" />
<path d="M48117 15309
L48117 16099
" />
<path d="M48133 13705
L48133 14490
" />
<path d="M48133 15309
L48133 16094
" />
<path d="M48149 13711
L48149 14490
" />
<path d="M48149 15309
L48149 16088
" />
<path d="M48164 13718
L48164 14490
" />
<path d="M48164 15309
L48164 16081
" />
<path d="M48180 13724
L48180 14490
" />
<path d="M48180 15309
L48180 16075
" />
<path d="M48196 13730
L48196 14490
" />
<path d="M48196 15309
L48196 16069
" />
<path d="M48212 13737
L48212 14490
" />
<path d="M48212 15309
L48212 16062
" />
<path d="M48227 13744
L48227 14490
" />
<path d="M48227 15309
L48227 16055
" />
<path d="M48243 13751
L48243 14490
" />
<path d="M48243 15309
L48243 16048
" />
<path d="M48259 13759
L48259 14490
" />
<path d="M48259 15309
L48259 16040
" />
<path d="M48275 13767
L48275 14490
" />
<path d="M48275 15309
L48275 16032
" />
<path d="M48290 13775
L48290 14490
" />
<path d="M48290 15309
L48290 16024
" />
<path d="M48306 13784
L48306 14490
" />
<path d="M48306 15309
L48306 16015
" />
<path d="M48322 13792
L48322 14490
" />
<path d="M48322 15309
L48322 16007
" />
<path d="M48338 13801
L48338 14490
" />
<path d="M48338 15309
L48338 15998
" />
<path d="M48353 13811
L48353 14490
" />
<path d="M48353 15309
L48353 15988
" />
<path d="M48369 13820
L48369 14490
" />
<path d="M48369 15309
L48369 15979
" />
<path d="M48385 13830
L48385 14490
" />
<path d="M48385 15309
L48385 15969
" />
<path d="M48401 13840
L48401 14490
" />
<path d="M48401 15309
L48401 15959
" />
<path d="M48416 13851
L48416 14490
" />
<path d="M48416 15309
L48416 15948
" />
<path d="M48432 13862
L48432 14490
" />
<path d="M48432 15309
L48432 15937
" />
<path d="M48448 13873
L48448 14490
" />
<path d="M48448 15309
L48448 15926
" />
<path d="M48464 13885
L48464 14490
" />
<path d="M48464 15309
L48464 15914
" />
<path d="M48479 13896
L48479 14490
" />
<path d="M48479 15309
L48479 15903
" />
<path d="M48495 13909
L48495 14490
" />
<path d="M48495 15309
L48495 15890
" />
<path d="M48511 13922
L48511 14490
" />
<path d="M48511 15309
L48511 15877
" />
<path d="M48527 13935
L48527 14490
" />
<path d="M48527 15309
L48527 15864
" />
<path d="M48542 13948
L48542 14490
" />
<path d="M48542 15309
L48542 15851
" />
<path d="M48558 13962
L48558 14490
" />
<path d="M48558 15309
L48558 15837
" />
<path d="M48574 13977
L48574 14490
" />
<path d="M48574 15309
L48574 15822
" />
<path d="M48590 13992
L48590 14490
" />
<path d="M48590 15309
L48590 15807
" />
<path d="M48605 14008
L48605 15791
" />
<path d="M48621 14024
L48621 15775
" />
<path d="M48637 14040
L48637 15759
" />
<path d="M48653 14058
L48653 15741
" />
<path d="M48668 14076
L48668 15723
" />
<path d="M48684 14095
L48684 15704
" />
<path d="M48700 14114
L48700 15685
" />
<path d="M48716 14134
L48716 15665
" />
<path d="M48731 14155
L48731 15644
" />
<path d="M48747 14177
L48747 15622
" />
<path d="M48763 14200
L48763 15599
" />
<path d="M48779 14225
L48779 15574
" />
<path d="M48794 14250
L48794 15549
" />
<path d="M48810 14277
L48810 15522
" />
<path d="M48826 14305
L48826 15494
" />
<path d="M48842 14336
L48842 15463
" />
<path d="M48857 14368
L48857 15431
" />
<path d="M48873 14403
L48873 15396
" />
<path d="M48889 14441
L48889 15358
" />
<path d="M48905 14483
L48905 15316
" />
<path d="M48920 14529
L48920 15270
" />
<path d="M48936 14584
L48936 15215
" />
<path d="M48952 14650
L48952 15149
" />
<path d="M48968 14741
L48968 15058
" />
<path d="M46314 14175
L46562 14175
" />
<path d="M46438 14051
L46438 14300
" />
<path d="M43312 18015
L43312 13984
" />
<path d="M45139 18015
L45139 13984
" />
<path d="M43312 18015
L45139 18015
" />
<path d="M43312 13984
L45139 13984
" />
<path d="M43907 18015
L43907 13984
" />
<path d="M43312 16728
L43907 16728
" />
<path d="M43312 15271
L43907 15271
" />
<path d="M53744 27337
L55255 27337
" />
<path d="M53744 28062
L55255 28062
" />
<path d="M47044 17137
L48555 17137
" />
<path d="M47044 17862
L48555 17862
" />
<path d="M48437 18744
L48437 20255
" />
<path d="M49162 18744
L49162 20255
" />
<path d="M22353.6 16795.1 A731.531 731.531 0.0 0 0 22353.5 16204.7 " />
<path d="M22353.6 18795.1 A731.531 731.531 0.0 0 0 22353.5 18204.7 " />
<circle cx="23200" cy="14728.3" r="748.031" /> 
<circle cx="23200" cy="20271.7" r="748.031" /> 
<path d="M22014 13661
L22014 21338
" />
<path d="M22014 21338
L24463 21338
" />
<path d="M24463 21338
L24463 19448
" />
<path d="M24463 19448
L24955 19448
" />
<path d="M24955 19448
L24955 15551
" />
<path d="M24955 15551
L24463 15551
" />
<path d="M24463 15551
L24463 13661
" />
<path d="M24463 13661
L22014 13661
" />
<path d="M22353 16204
L22353 15909
" />
<path d="M22353 15909
L24046 15909
" />
<path d="M24046 15909
L24046 16204
" />
<path d="M24046 16204
L24184 16204
" />
<path d="M24184 16204
L24184 16007
" />
<path d="M24184 16007
L24577 15909
" />
<path d="M24577 15909
L24577 17090
" />
<path d="M24577 17090
L24184 16992
" />
<path d="M24184 16992
L24184 16795
" />
<path d="M24184 16795
L24046 16795
" />
<path d="M24046 16795
L24046 17090
" />
<path d="M24046 17090
L22353 17090
" />
<path d="M22353 17090
L22353 16795
" />
<path d="M22353 18204
L22353 17909
" />
<path d="M22353 17909
L24046 17909
" />
<path d="M24046 17909
L24046 18204
" />
<path d="M24046 18204
L24184 18204
" />
<path d="M24184 18204
L24184 18007
" />
<path d="M24184 18007
L24577 17909
" />
<path d="M24577 17909
L24577 19090
" />
<path d="M24577 19090
L24184 18992
" />
<path d="M24184 18992
L24184 18795
" />
<path d="M24184 18795
L24046 18795
" />
<path d="M24046 18795
L24046 19090
" />
<path d="M24046 19090
L22353 19090
" />
<path d="M22353 19090
L22353 18795
" />
<path d="M24617 15397
L25109 15397
" />
<path d="M25109 15397
L25109 16185
" />
<path d="M49526 18511
L51109 18511
" />
<path d="M51109 18511
L51109 15472
" />
<path d="M51109 15472
L49526 15472
" />
<path d="M49526 15472
L49526 18511
" />
<path d="M50200 18511
L50200 18314
" />
<path d="M50200 18314
L49723 18314
" />
<path d="M49723 18314
L49723 15669
" />
<path d="M49723 15669
L50200 15669
" />
<path d="M50200 15669
L50200 15472
" />
<path d="M50518 18511
L50518 18118
" />
<path d="M50518 18118
L51109 18118
" />
<path d="M50518 15472
L50518 15866
" />
<path d="M50518 15866
L51109 15866
" />
<path d="M50243 18629
L51227 18629
" />
<path d="M51227 18629
L51227 17645
" />
<path d="M55203 13626
L55203 15209
" />
<path d="M55203 15209
L59227 15209
" />
<path d="M59227 15209
L59227 13626
" />
<path d="M59227 13626
L55203 13626
" />
<path d="M55203 14300
L55400 14300
" />
<path d="M55400 14300
L55400 13823
" />
<path d="M55400 13823
L59030 13823
" />
<path d="M59030 13823
L59030 14300
" />
<path d="M59030 14300
L59227 14300
" />
<path d="M55203 14618
L55597 14618
" />
<path d="M55597 14618
L55597 15209
" />
<path d="M59227 14618
L58833 14618
" />
<path d="M58833 14618
L58833 15209
" />
<path d="M55085 14343
L55085 15327
" />
<path d="M55085 15327
L56070 15327
" />
<path d="M55085 21527
L56070 21527
" />
<path d="M55085 20543
L55085 21527
" />
<path d="M58833 20818
L58833 21409
" />
<path d="M59227 20818
L58833 20818
" />
<path d="M55597 20818
L55597 21409
" />
<path d="M55203 20818
L55597 20818
" />
<path d="M59030 20500
L59227 20500
" />
<path d="M59030 20023
L59030 20500
" />
<path d="M55400 20023
L59030 20023
" />
<path d="M55400 20500
L55400 20023
" />
<path d="M55203 20500
L55400 20500
" />
<path d="M59227 19826
L55203 19826
" />
<path d="M59227 21409
L59227 19826
" />
<path d="M55203 21409
L59227 21409
" />
<path d="M55203 19826
L55203 21409
" />
<path d="M48034 27055
L48034 25540
" />
<path d="M48034 25540
L47700 25481
" />
<path d="M47700 25481
L47070 25717
" />
<path d="M47070 25717
L47070 26878
" />
<path d="M47581 27075
L47700 27114
" />
<path d="M47700 27114
L48034 27055
" />
<path d="M47070 26878
L47325 26977
" />
<path d="M52934 27055
L52934 25540
" />
<path d="M52934 25540
L52600 25481
" />
<path d="M52600 25481
L51970 25717
" />
<path d="M51970 25717
L51970 26878
" />
<path d="M52481 27075
L52600 27114
" />
<path d="M52600 27114
L52934 27055
" />
<path d="M51970 26878
L52225 26977
" />
<path d="M53821 25170
L53722 25425
" />
<path d="M53585 25800
L53644 26134
" />
<path d="M53624 25681
L53585 25800
" />
<path d="M54982 25170
L53821 25170
" />
<path d="M55218 25800
L54982 25170
" />
<path d="M55159 26134
L55218 25800
" />
<path d="M53644 26134
L55159 26134
" />
<path d="M56021 25170
L55922 25425
" />
<path d="M55785 25800
L55844 26134
" />
<path d="M55824 25681
L55785 25800
" />
<path d="M57182 25170
L56021 25170
" />
<path d="M57418 25800
L57182 25170
" />
<path d="M57359 26134
L57418 25800
" />
<path d="M55844 26134
L57359 26134
" />
<path d="M57355 22965
L55840 22965
" />
<path d="M55840 22965
L55781 23300
" />
<path d="M55781 23300
L56017 23929
" />
<path d="M56017 23929
L57178 23929
" />
<path d="M57375 23418
L57414 23300
" />
<path d="M57414 23300
L57355 22965
" />
<path d="M57178 23929
L57277 23674
" />
<path d="M51370 24378
L51625 24477
" />
<path d="M52000 24614
L52334 24555
" />
<path d="M51881 24575
L52000 24614
" />
<path d="M51370 23217
L51370 24378
" />
<path d="M52000 22981
L51370 23217
" />
<path d="M52334 23040
L52000 22981
" />
<path d="M52334 24555
L52334 23040
" />
<path d="M47979 28201
L47979 27998
" />
<path d="M47420 28201
L47420 27998
" />
<path d="M50920 26870
L50920 26667
" />
<path d="M51479 26870
L51479 26667
" />
<path d="M50420 24798
L50420 25001
" />
<path d="M50979 24798
L50979 25001
" />
<path d="M47162 19244
L46437 19244
" />
<path d="M46437 19244
L46437 20755
" />
<path d="M46437 20755
L47162 20755
" />
<path d="M47162 20755
L47162 19244
" />
<path d="M46800 18870
L46800 19244
" />
<path d="M46800 21129
L46800 20755
" />
<path d="M52529 20500
L52155 20500
" />
<path d="M50270 20500
L50644 20500
" />
<path d="M52155 20137
L50644 20137
" />
<path d="M52155 20862
L52155 20137
" />
<path d="M50644 20862
L52155 20862
" />
<path d="M50644 20137
L50644 20862
" />
<path d="M59029 27700
L58655 27700
" />
<path d="M56770 27700
L57144 27700
" />
<path d="M58655 27337
L57144 27337
" />
<path d="M58655 28062
L58655 27337
" />
<path d="M57144 28062
L58655 28062
" />
<path d="M57144 27337
L57144 28062
" />
<path d="M53444 17537
L53444 18262
" />
<path d="M53444 18262
L54955 18262
" />
<path d="M54955 18262
L54955 17537
" />
<path d="M54955 17537
L53444 17537
" />
<path d="M53070 17900
L53444 17900
" />
<path d="M55329 17900
L54955 17900
" />
<path d="M25552 30047
L25552 12952
" />
<path d="M25552 30047
L40647 30047
" />
<path d="M40647 12952
L25552 12952
" />
<path d="M40647 12952
L40647 30047
" />
<path d="M43312 22515
L43312 18484
" />
<path d="M45139 22515
L45139 18484
" />
<path d="M43312 22515
L45139 22515
" />
<path d="M43312 18484
L45139 18484
" />
<path d="M43907 22515
L43907 18484
" />
<path d="M43312 21228
L43907 21228
" />
<path d="M43312 19771
L43907 19771
" />
</g>
<g style="fill:#008484; fill-opacity:0.0; 
stroke:#008484; stroke-width:59.0551; stroke-opacity:1; 
stroke-linecap:round; stroke-linejoin:round;">
<path d="M48871 26740
L48852 26759
L48796 26778
L48758 26778
L48702 26759
L48665 26721
L48646 26684
L48627 26609
L48627 26553
L48646 26478
L48665 26440
L48702 26403
L48758 26384
L48796 26384
L48852 26403
L48871 26421
" />
<path d="M49246 26778
L49021 26778
" />
<path d="M49133 26778
L49133 26384
L49096 26440
L49058 26478
L49021 26496
" />
<path d="M43134 23540
L43115 23559
L43059 23578
L43021 23578
L42965 23559
L42928 23521
L42909 23484
L42890 23409
L42890 23353
L42909 23278
L42928 23240
L42965 23203
L43021 23184
L43059 23184
L43115 23203
L43134 23221
" />
<path d="M43490 23184
L43303 23184
L43284 23371
L43303 23353
L43340 23334
L43434 23334
L43471 23353
L43490 23371
L43509 23409
L43509 23503
L43490 23540
L43471 23559
L43434 23578
L43340 23578
L43303 23559
L43284 23540
" />
<path d="M44534 28540
L44515 28559
L44459 28578
L44421 28578
L44365 28559
L44328 28521
L44309 28484
L44290 28409
L44290 28353
L44309 28278
L44328 28240
L44365 28203
L44421 28184
L44459 28184
L44515 28203
L44534 28221
" />
<path d="M44759 28353
L44721 28334
L44703 28315
L44684 28278
L44684 28259
L44703 28221
L44721 28203
L44759 28184
L44834 28184
L44871 28203
L44890 28221
L44909 28259
L44909 28278
L44890 28315
L44871 28334
L44834 28353
L44759 28353
L44721 28371
L44703 28390
L44684 28428
L44684 28503
L44703 28540
L44721 28559
L44759 28578
L44834 28578
L44871 28559
L44890 28540
L44909 28503
L44909 28428
L44890 28390
L44871 28371
L44834 28353
" />
<path d="M47626 13308
L47607 13327
L47551 13345
L47514 13345
L47457 13327
L47420 13289
L47401 13252
L47382 13177
L47382 13120
L47401 13045
L47420 13008
L47457 12970
L47514 12952
L47551 12952
L47607 12970
L47626 12989
" />
<path d="M47813 13345
L47888 13345
L47926 13327
L47945 13308
L47982 13252
L48001 13177
L48001 13027
L47982 12989
L47963 12970
L47926 12952
L47851 12952
L47813 12970
L47795 12989
L47776 13027
L47776 13120
L47795 13158
L47813 13177
L47851 13195
L47926 13195
L47963 13177
L47982 13158
L48001 13120
" />
<path d="M45309 16178
L45309 15784
L45403 15784
L45459 15803
L45496 15840
L45515 15878
L45534 15953
L45534 16009
L45515 16084
L45496 16121
L45459 16159
L45403 16178
L45309 16178
" />
<path d="M45909 16178
L45684 16178
" />
<path d="M45796 16178
L45796 15784
L45759 15840
L45721 15878
L45684 15896
" />
<path d="M54209 27122
L54209 26728
L54303 26728
L54359 26747
L54396 26784
L54415 26822
L54434 26897
L54434 26953
L54415 27028
L54396 27065
L54359 27103
L54303 27122
L54209 27122
" />
<path d="M54584 26765
L54603 26747
L54640 26728
L54734 26728
L54771 26747
L54790 26765
L54809 26803
L54809 26840
L54790 26897
L54565 27122
L54809 27122
" />
<path d="M47509 16922
L47509 16528
L47603 16528
L47659 16547
L47696 16584
L47715 16622
L47734 16697
L47734 16753
L47715 16828
L47696 16865
L47659 16903
L47603 16922
L47509 16922
" />
<path d="M47865 16528
L48109 16528
L47978 16678
L48034 16678
L48071 16697
L48090 16715
L48109 16753
L48109 16847
L48090 16884
L48071 16903
L48034 16922
L47921 16922
L47884 16903
L47865 16884
" />
<path d="M48509 21578
L48509 21184
L48603 21184
L48659 21203
L48696 21240
L48715 21278
L48734 21353
L48734 21409
L48715 21484
L48696 21521
L48659 21559
L48603 21578
L48509 21578
" />
<path d="M49071 21315
L49071 21578
" />
<path d="M48978 21165
L48884 21446
L49128 21446
" />
<path d="M23068 21784
L23068 22065
L23050 22121
L23012 22159
L22956 22178
L22918 22178
" />
<path d="M23462 22178
L23237 22178
" />
<path d="M23349 22178
L23349 21784
L23312 21840
L23274 21878
L23237 21896
" />
<path d="M50068 14684
L50068 14965
L50050 15021
L50012 15059
L49956 15078
L49918 15078
" />
<path d="M50237 14721
L50256 14703
L50293 14684
L50387 14684
L50424 14703
L50443 14721
L50462 14759
L50462 14796
L50443 14853
L50218 15078
L50462 15078
" />
<path d="M57084 12982
L57084 13263
L57065 13319
L57028 13356
L56972 13375
L56934 13375
" />
<path d="M57234 12982
L57478 12982
L57346 13132
L57403 13132
L57440 13150
L57459 13169
L57478 13207
L57478 13300
L57459 13338
L57440 13356
L57403 13375
L57290 13375
L57253 13356
L57234 13338
" />
<path d="M56831 15629
L56831 15816
" />
<path d="M56700 15422
L56831 15629
L56962 15422
" />
<path d="M57300 15441
L57262 15422
L57206 15422
L57150 15441
L57112 15479
L57093 15516
L57075 15591
L57075 15647
L57093 15722
L57112 15760
L57150 15797
L57206 15816
L57243 15816
L57300 15797
L57318 15779
L57318 15647
L57243 15647
" />
<path d="M57450 15422
L57712 15816
" />
<path d="M57712 15422
L57450 15816
" />
<path d="M57084 19182
L57084 19463
L57065 19519
L57028 19556
L56972 19575
L56934 19575
" />
<path d="M57440 19313
L57440 19575
" />
<path d="M57346 19163
L57253 19444
L57496 19444
" />
<path d="M56962 21979
L56943 21997
L56887 22016
L56850 22016
L56793 21997
L56756 21960
L56737 21922
L56718 21847
L56718 21791
L56737 21716
L56756 21679
L56793 21641
L56850 21622
L56887 21622
L56943 21641
L56962 21660
" />
<path d="M57262 21810
L57318 21829
L57337 21847
L57356 21885
L57356 21941
L57337 21979
L57318 21997
L57281 22016
L57131 22016
L57131 21622
L57262 21622
L57300 21641
L57318 21660
L57337 21697
L57337 21735
L57318 21772
L57300 21791
L57262 21810
L57131 21810
" />
<path d="M57525 21810
L57656 21810
" />
<path d="M57712 22016
L57525 22016
L57525 21622
L57712 21622
" />
<path d="M46737 26515
L46699 26496
L46662 26459
L46606 26403
L46568 26384
L46531 26384
" />
<path d="M46549 26478
L46512 26459
L46474 26421
L46456 26346
L46456 26215
L46474 26140
L46512 26103
L46549 26084
L46624 26084
L46662 26103
L46699 26140
L46718 26215
L46718 26346
L46699 26421
L46662 26459
L46624 26478
L46549 26478
" />
<path d="M47093 26478
L46868 26478
" />
<path d="M46981 26478
L46981 26084
L46943 26140
L46906 26178
L46868 26196
" />
<path d="M51637 26515
L51599 26496
L51562 26459
L51506 26403
L51468 26384
L51431 26384
" />
<path d="M51449 26478
L51412 26459
L51374 26421
L51356 26346
L51356 26215
L51374 26140
L51412 26103
L51449 26084
L51524 26084
L51562 26103
L51599 26140
L51618 26215
L51618 26346
L51599 26421
L51562 26459
L51524 26478
L51449 26478
" />
<path d="M51768 26121
L51787 26103
L51824 26084
L51918 26084
L51956 26103
L51974 26121
L51993 26159
L51993 26196
L51974 26253
L51749 26478
L51993 26478
" />
<path d="M54362 25090
L54325 25071
L54287 25034
L54231 24977
L54193 24959
L54156 24959
" />
<path d="M54175 25052
L54137 25034
L54100 24996
L54081 24921
L54081 24790
L54100 24715
L54137 24677
L54175 24659
L54250 24659
L54287 24677
L54325 24715
L54343 24790
L54343 24921
L54325 24996
L54287 25034
L54250 25052
L54175 25052
" />
<path d="M54474 24659
L54718 24659
L54587 24809
L54643 24809
L54681 24827
L54699 24846
L54718 24884
L54718 24977
L54699 25015
L54681 25034
L54643 25052
L54531 25052
L54493 25034
L54474 25015
" />
<path d="M56562 25090
L56525 25071
L56487 25034
L56431 24977
L56393 24959
L56356 24959
" />
<path d="M56375 25052
L56337 25034
L56300 24996
L56281 24921
L56281 24790
L56300 24715
L56337 24677
L56375 24659
L56450 24659
L56487 24677
L56525 24715
L56543 24790
L56543 24921
L56525 24996
L56487 25034
L56450 25052
L56375 25052
" />
<path d="M56881 24790
L56881 25052
" />
<path d="M56787 24640
L56693 24921
L56937 24921
" />
<path d="M56462 22815
L56425 22796
L56387 22759
L56331 22703
L56293 22684
L56256 22684
" />
<path d="M56275 22778
L56237 22759
L56200 22721
L56181 22646
L56181 22515
L56200 22440
L56237 22403
L56275 22384
L56350 22384
L56387 22403
L56425 22440
L56443 22515
L56443 22646
L56425 22721
L56387 22759
L56350 22778
L56275 22778
" />
<path d="M56799 22384
L56612 22384
L56593 22571
L56612 22553
L56649 22534
L56743 22534
L56781 22553
L56799 22571
L56818 22609
L56818 22703
L56799 22740
L56781 22759
L56743 22778
L56649 22778
L56612 22759
L56593 22740
" />
<path d="M51037 24015
L50999 23996
L50962 23959
L50906 23903
L50868 23884
L50831 23884
" />
<path d="M50849 23978
L50812 23959
L50774 23921
L50756 23846
L50756 23715
L50774 23640
L50812 23603
L50849 23584
L50924 23584
L50962 23603
L50999 23640
L51018 23715
L51018 23846
L50999 23921
L50962 23959
L50924 23978
L50849 23978
" />
<path d="M51356 23584
L51281 23584
L51243 23603
L51224 23621
L51187 23678
L51168 23753
L51168 23903
L51187 23940
L51206 23959
L51243 23978
L51318 23978
L51356 23959
L51374 23940
L51393 23903
L51393 23809
L51374 23771
L51356 23753
L51318 23734
L51243 23734
L51206 23753
L51187 23771
L51168 23809
" />
<path d="M46984 28278
L46853 28090
" />
<path d="M46759 28278
L46759 27884
L46909 27884
L46947 27903
L46966 27921
L46984 27959
L46984 28015
L46966 28053
L46947 28071
L46909 28090
L46759 28090
" />
<path d="M47359 28278
L47134 28278
" />
<path d="M47247 28278
L47247 27884
L47209 27940
L47172 27978
L47134 27996
" />
<path d="M50484 26947
L50353 26759
" />
<path d="M50259 26947
L50259 26553
L50409 26553
L50447 26572
L50466 26590
L50484 26628
L50484 26684
L50466 26722
L50447 26740
L50409 26759
L50259 26759
" />
<path d="M50822 26684
L50822 26947
" />
<path d="M50728 26534
L50634 26815
L50878 26815
" />
<path d="M49734 25078
L49603 24890
" />
<path d="M49509 25078
L49509 24684
L49659 24684
L49696 24703
L49715 24721
L49734 24759
L49734 24815
L49715 24853
L49696 24871
L49659 24890
L49509 24890
" />
<path d="M50090 24684
L49903 24684
L49884 24871
L49903 24853
L49940 24834
L50034 24834
L50071 24853
L50090 24871
L50109 24909
L50109 25003
L50090 25040
L50071 25059
L50034 25078
L49940 25078
L49903 25059
L49884 25040
" />
<path d="M46734 22578
L46603 22390
" />
<path d="M46509 22578
L46509 22184
L46659 22184
L46696 22203
L46715 22221
L46734 22259
L46734 22315
L46715 22353
L46696 22371
L46659 22390
L46509 22390
" />
<path d="M46865 22184
L47128 22184
L46959 22578
" />
<path d="M51334 19922
L51203 19734
" />
<path d="M51109 19922
L51109 19528
L51259 19528
L51296 19547
L51315 19565
L51334 19603
L51334 19659
L51315 19697
L51296 19715
L51259 19734
L51109 19734
" />
<path d="M51559 19697
L51521 19678
L51503 19659
L51484 19622
L51484 19603
L51503 19565
L51521 19547
L51559 19528
L51634 19528
L51671 19547
L51690 19565
L51709 19603
L51709 19622
L51690 19659
L51671 19678
L51634 19697
L51559 19697
L51521 19715
L51503 19734
L51484 19772
L51484 19847
L51503 19884
L51521 19903
L51559 19922
L51634 19922
L51671 19903
L51690 19884
L51709 19847
L51709 19772
L51690 19734
L51671 19715
L51634 19697
" />
<path d="M57834 27122
L57703 26934
" />
<path d="M57609 27122
L57609 26728
L57759 26728
L57796 26747
L57815 26765
L57834 26803
L57834 26859
L57815 26897
L57796 26915
L57759 26934
L57609 26934
" />
<path d="M58021 27122
L58096 27122
L58134 27103
L58153 27084
L58190 27028
L58209 26953
L58209 26803
L58190 26765
L58171 26747
L58134 26728
L58059 26728
L58021 26747
L58003 26765
L57984 26803
L57984 26897
L58003 26934
L58021 26953
L58059 26972
L58134 26972
L58171 26953
L58190 26934
L58209 26897
" />
<path d="M53946 17322
L53815 17134
" />
<path d="M53721 17322
L53721 16928
L53871 16928
L53909 16947
L53928 16965
L53946 17003
L53946 17059
L53928 17097
L53909 17115
L53871 17134
L53721 17134
" />
<path d="M54321 17322
L54096 17322
" />
<path d="M54209 17322
L54209 16928
L54171 16984
L54134 17022
L54096 17040
" />
<path d="M54565 16928
L54603 16928
L54640 16947
L54659 16965
L54678 17003
L54696 17078
L54696 17172
L54678 17247
L54659 17284
L54640 17303
L54603 17322
L54565 17322
L54528 17303
L54509 17284
L54490 17247
L54471 17172
L54471 17078
L54490 17003
L54509 16965
L54528 16947
L54565 16928
" />
<path d="M24800 28484
L25025 28484
" />
<path d="M24912 28878
L24912 28484
" />
<path d="M25362 28878
L25137 28878
" />
<path d="M25249 28878
L25249 28484
L25212 28540
L25174 28578
L25137 28596
" />
<path d="M45300 20184
L45300 20503
L45318 20540
L45337 20559
L45375 20578
L45450 20578
L45487 20559
L45506 20540
L45525 20503
L45525 20184
" />
<path d="M45918 20578
L45693 20578
" />
<path d="M45806 20578
L45806 20184
L45768 20240
L45731 20278
L45693 20296
" />
</g>
<g style="fill:#000000; fill-opacity:0.0; 
stroke:#000000; stroke-width:59.0551; stroke-opacity:1; 
stroke-linecap:round; stroke-linejoin:round;">
</g>
<g style="fill:#C2C200; fill-opacity:0.0; 
stroke:#C2C200; stroke-width:59.0551; stroke-opacity:1; 
stroke-linecap:round; stroke-linejoin:round;">
<circle cx="21000" cy="13000" r="656.168" /> 
<path d="M20015 13000
L21984 13000
" />
<path d="M21000 12015
L21000 13984
" />
<path d="M21000 13000
L60000 13000
" />
<path d="M21000 29500
L21000 13000
" />
<path d="M60000 29500
L21000 29500
" />
<path d="M60000 29000
L60000 29500
" />
<path d="M60000 13000
L60000 29000
" />
</g> 
</svg>
