G04 #@! TF.GenerationSoftware,KiCad,Pcbnew,5.0.2*
G04 #@! TF.CreationDate,2020-05-10T00:02:24+02:00*
G04 #@! TF.ProjectId,Transistor_curve_tracer,5472616e-7369-4737-946f-725f63757276,rev?*
G04 #@! TF.SameCoordinates,Original*
G04 #@! TF.FileFunction,Copper,L1,Top*
G04 #@! TF.FilePolarity,Positive*
%FSLAX46Y46*%
G04 Gerber Fmt 4.6, Leading zero omitted, Abs format (unit mm)*
G04 Created by KiCad (PCBNEW 5.0.2) date Sun 10 May 2020 12:02:24 AM CEST*
%MOMM*%
%LPD*%
G01*
G04 APERTURE LIST*
G04 #@! TA.AperFunction,Conductor*
%ADD10C,0.100000*%
G04 #@! TD*
G04 #@! TA.AperFunction,SMDPad,CuDef*
%ADD11C,0.875000*%
G04 #@! TD*
G04 #@! TA.AperFunction,ComponentPad*
%ADD12R,1.600000X1.600000*%
G04 #@! TD*
G04 #@! TA.AperFunction,ComponentPad*
%ADD13C,1.600000*%
G04 #@! TD*
G04 #@! TA.AperFunction,ComponentPad*
%ADD14R,1.200000X1.200000*%
G04 #@! TD*
G04 #@! TA.AperFunction,ComponentPad*
%ADD15C,1.200000*%
G04 #@! TD*
G04 #@! TA.AperFunction,ComponentPad*
%ADD16R,2.000000X1.905000*%
G04 #@! TD*
G04 #@! TA.AperFunction,ComponentPad*
%ADD17O,2.000000X1.905000*%
G04 #@! TD*
G04 #@! TA.AperFunction,ComponentPad*
%ADD18C,1.400000*%
G04 #@! TD*
G04 #@! TA.AperFunction,ComponentPad*
%ADD19O,1.400000X1.400000*%
G04 #@! TD*
G04 #@! TA.AperFunction,ComponentPad*
%ADD20C,1.800000*%
G04 #@! TD*
G04 #@! TA.AperFunction,ComponentPad*
%ADD21O,3.600000X1.800000*%
G04 #@! TD*
G04 #@! TA.AperFunction,ComponentPad*
%ADD22C,1.700000*%
G04 #@! TD*
G04 #@! TA.AperFunction,ComponentPad*
%ADD23O,2.000000X1.700000*%
G04 #@! TD*
G04 #@! TA.AperFunction,ComponentPad*
%ADD24O,1.700000X1.950000*%
G04 #@! TD*
G04 #@! TA.AperFunction,ComponentPad*
%ADD25R,1.300000X1.050000*%
G04 #@! TD*
G04 #@! TA.AperFunction,ComponentPad*
%ADD26O,1.300000X1.050000*%
G04 #@! TD*
G04 #@! TA.AperFunction,ComponentPad*
%ADD27O,1.050000X1.300000*%
G04 #@! TD*
G04 #@! TA.AperFunction,ComponentPad*
%ADD28R,1.050000X1.300000*%
G04 #@! TD*
G04 #@! TA.AperFunction,SMDPad,CuDef*
%ADD29C,0.975000*%
G04 #@! TD*
G04 #@! TA.AperFunction,ComponentPad*
%ADD30C,3.000000*%
G04 #@! TD*
G04 #@! TA.AperFunction,ViaPad*
%ADD31C,0.800000*%
G04 #@! TD*
G04 #@! TA.AperFunction,Conductor*
%ADD32C,0.250000*%
G04 #@! TD*
G04 #@! TA.AperFunction,Conductor*
%ADD33C,0.450000*%
G04 #@! TD*
G04 APERTURE END LIST*
D10*
G04 #@! TO.N,Net-(C1-Pad2)*
G04 #@! TO.C,C1*
G36*
X126007691Y-66340053D02*
X126028926Y-66343203D01*
X126049750Y-66348419D01*
X126069962Y-66355651D01*
X126089368Y-66364830D01*
X126107781Y-66375866D01*
X126125024Y-66388654D01*
X126140930Y-66403070D01*
X126155346Y-66418976D01*
X126168134Y-66436219D01*
X126179170Y-66454632D01*
X126188349Y-66474038D01*
X126195581Y-66494250D01*
X126200797Y-66515074D01*
X126203947Y-66536309D01*
X126205000Y-66557750D01*
X126205000Y-66995250D01*
X126203947Y-67016691D01*
X126200797Y-67037926D01*
X126195581Y-67058750D01*
X126188349Y-67078962D01*
X126179170Y-67098368D01*
X126168134Y-67116781D01*
X126155346Y-67134024D01*
X126140930Y-67149930D01*
X126125024Y-67164346D01*
X126107781Y-67177134D01*
X126089368Y-67188170D01*
X126069962Y-67197349D01*
X126049750Y-67204581D01*
X126028926Y-67209797D01*
X126007691Y-67212947D01*
X125986250Y-67214000D01*
X125473750Y-67214000D01*
X125452309Y-67212947D01*
X125431074Y-67209797D01*
X125410250Y-67204581D01*
X125390038Y-67197349D01*
X125370632Y-67188170D01*
X125352219Y-67177134D01*
X125334976Y-67164346D01*
X125319070Y-67149930D01*
X125304654Y-67134024D01*
X125291866Y-67116781D01*
X125280830Y-67098368D01*
X125271651Y-67078962D01*
X125264419Y-67058750D01*
X125259203Y-67037926D01*
X125256053Y-67016691D01*
X125255000Y-66995250D01*
X125255000Y-66557750D01*
X125256053Y-66536309D01*
X125259203Y-66515074D01*
X125264419Y-66494250D01*
X125271651Y-66474038D01*
X125280830Y-66454632D01*
X125291866Y-66436219D01*
X125304654Y-66418976D01*
X125319070Y-66403070D01*
X125334976Y-66388654D01*
X125352219Y-66375866D01*
X125370632Y-66364830D01*
X125390038Y-66355651D01*
X125410250Y-66348419D01*
X125431074Y-66343203D01*
X125452309Y-66340053D01*
X125473750Y-66339000D01*
X125986250Y-66339000D01*
X126007691Y-66340053D01*
X126007691Y-66340053D01*
G37*
D11*
G04 #@! TD*
G04 #@! TO.P,C1,2*
G04 #@! TO.N,Net-(C1-Pad2)*
X125730000Y-66776500D03*
D10*
G04 #@! TO.N,Net-(C1-Pad1)*
G04 #@! TO.C,C1*
G36*
X126007691Y-67915053D02*
X126028926Y-67918203D01*
X126049750Y-67923419D01*
X126069962Y-67930651D01*
X126089368Y-67939830D01*
X126107781Y-67950866D01*
X126125024Y-67963654D01*
X126140930Y-67978070D01*
X126155346Y-67993976D01*
X126168134Y-68011219D01*
X126179170Y-68029632D01*
X126188349Y-68049038D01*
X126195581Y-68069250D01*
X126200797Y-68090074D01*
X126203947Y-68111309D01*
X126205000Y-68132750D01*
X126205000Y-68570250D01*
X126203947Y-68591691D01*
X126200797Y-68612926D01*
X126195581Y-68633750D01*
X126188349Y-68653962D01*
X126179170Y-68673368D01*
X126168134Y-68691781D01*
X126155346Y-68709024D01*
X126140930Y-68724930D01*
X126125024Y-68739346D01*
X126107781Y-68752134D01*
X126089368Y-68763170D01*
X126069962Y-68772349D01*
X126049750Y-68779581D01*
X126028926Y-68784797D01*
X126007691Y-68787947D01*
X125986250Y-68789000D01*
X125473750Y-68789000D01*
X125452309Y-68787947D01*
X125431074Y-68784797D01*
X125410250Y-68779581D01*
X125390038Y-68772349D01*
X125370632Y-68763170D01*
X125352219Y-68752134D01*
X125334976Y-68739346D01*
X125319070Y-68724930D01*
X125304654Y-68709024D01*
X125291866Y-68691781D01*
X125280830Y-68673368D01*
X125271651Y-68653962D01*
X125264419Y-68633750D01*
X125259203Y-68612926D01*
X125256053Y-68591691D01*
X125255000Y-68570250D01*
X125255000Y-68132750D01*
X125256053Y-68111309D01*
X125259203Y-68090074D01*
X125264419Y-68069250D01*
X125271651Y-68049038D01*
X125280830Y-68029632D01*
X125291866Y-68011219D01*
X125304654Y-67993976D01*
X125319070Y-67978070D01*
X125334976Y-67963654D01*
X125352219Y-67950866D01*
X125370632Y-67939830D01*
X125390038Y-67930651D01*
X125410250Y-67923419D01*
X125431074Y-67918203D01*
X125452309Y-67915053D01*
X125473750Y-67914000D01*
X125986250Y-67914000D01*
X126007691Y-67915053D01*
X126007691Y-67915053D01*
G37*
D11*
G04 #@! TD*
G04 #@! TO.P,C1,1*
G04 #@! TO.N,Net-(C1-Pad1)*
X125730000Y-68351500D03*
D12*
G04 #@! TO.P,C5,1*
G04 #@! TO.N,VCC*
X109982000Y-66040000D03*
D13*
G04 #@! TO.P,C5,2*
G04 #@! TO.N,GND*
X109982000Y-63540000D03*
G04 #@! TD*
D14*
G04 #@! TO.P,C8,1*
G04 #@! TO.N,Net-(C8-Pad1)*
X109982000Y-72898000D03*
D15*
G04 #@! TO.P,C8,2*
G04 #@! TO.N,GND*
X109982000Y-71398000D03*
G04 #@! TD*
D12*
G04 #@! TO.P,C9,1*
G04 #@! TO.N,+6V*
X119888000Y-37846000D03*
D13*
G04 #@! TO.P,C9,2*
G04 #@! TO.N,GND*
X122388000Y-37846000D03*
G04 #@! TD*
D16*
G04 #@! TO.P,D1,1*
G04 #@! TO.N,VCC*
X113284000Y-44450000D03*
D17*
G04 #@! TO.P,D1,2*
G04 #@! TO.N,GND*
X113284000Y-41910000D03*
G04 #@! TO.P,D1,3*
G04 #@! TO.N,Net-(D1-Pad3)*
X113284000Y-39370000D03*
G04 #@! TO.P,D1,4*
G04 #@! TO.N,Net-(D1-Pad4)*
X113284000Y-36830000D03*
G04 #@! TD*
D18*
G04 #@! TO.P,D2,1*
G04 #@! TO.N,GND*
X135890000Y-70358000D03*
D19*
G04 #@! TO.P,D2,2*
G04 #@! TO.N,Net-(C4-Pad2)*
X140970000Y-70358000D03*
G04 #@! TD*
D18*
G04 #@! TO.P,D3,1*
G04 #@! TO.N,VCC*
X118872000Y-44450000D03*
D19*
G04 #@! TO.P,D3,2*
G04 #@! TO.N,+6V*
X123952000Y-44450000D03*
G04 #@! TD*
G04 #@! TO.P,D4,2*
G04 #@! TO.N,Net-(C8-Pad1)*
X123952000Y-52070000D03*
D18*
G04 #@! TO.P,D4,1*
G04 #@! TO.N,+6V*
X123952000Y-46990000D03*
G04 #@! TD*
D10*
G04 #@! TO.N,Net-(J1-Pad1)*
G04 #@! TO.C,J1*
G36*
X60502504Y-41011204D02*
X60526773Y-41014804D01*
X60550571Y-41020765D01*
X60573671Y-41029030D01*
X60595849Y-41039520D01*
X60616893Y-41052133D01*
X60636598Y-41066747D01*
X60654777Y-41083223D01*
X60671253Y-41101402D01*
X60685867Y-41121107D01*
X60698480Y-41142151D01*
X60708970Y-41164329D01*
X60717235Y-41187429D01*
X60723196Y-41211227D01*
X60726796Y-41235496D01*
X60728000Y-41260000D01*
X60728000Y-42560000D01*
X60726796Y-42584504D01*
X60723196Y-42608773D01*
X60717235Y-42632571D01*
X60708970Y-42655671D01*
X60698480Y-42677849D01*
X60685867Y-42698893D01*
X60671253Y-42718598D01*
X60654777Y-42736777D01*
X60636598Y-42753253D01*
X60616893Y-42767867D01*
X60595849Y-42780480D01*
X60573671Y-42790970D01*
X60550571Y-42799235D01*
X60526773Y-42805196D01*
X60502504Y-42808796D01*
X60478000Y-42810000D01*
X57378000Y-42810000D01*
X57353496Y-42808796D01*
X57329227Y-42805196D01*
X57305429Y-42799235D01*
X57282329Y-42790970D01*
X57260151Y-42780480D01*
X57239107Y-42767867D01*
X57219402Y-42753253D01*
X57201223Y-42736777D01*
X57184747Y-42718598D01*
X57170133Y-42698893D01*
X57157520Y-42677849D01*
X57147030Y-42655671D01*
X57138765Y-42632571D01*
X57132804Y-42608773D01*
X57129204Y-42584504D01*
X57128000Y-42560000D01*
X57128000Y-41260000D01*
X57129204Y-41235496D01*
X57132804Y-41211227D01*
X57138765Y-41187429D01*
X57147030Y-41164329D01*
X57157520Y-41142151D01*
X57170133Y-41121107D01*
X57184747Y-41101402D01*
X57201223Y-41083223D01*
X57219402Y-41066747D01*
X57239107Y-41052133D01*
X57260151Y-41039520D01*
X57282329Y-41029030D01*
X57305429Y-41020765D01*
X57329227Y-41014804D01*
X57353496Y-41011204D01*
X57378000Y-41010000D01*
X60478000Y-41010000D01*
X60502504Y-41011204D01*
X60502504Y-41011204D01*
G37*
D20*
G04 #@! TD*
G04 #@! TO.P,J1,1*
G04 #@! TO.N,Net-(J1-Pad1)*
X58928000Y-41910000D03*
D21*
G04 #@! TO.P,J1,2*
G04 #@! TO.N,Net-(J1-Pad2)*
X58928000Y-46990000D03*
G04 #@! TD*
D10*
G04 #@! TO.N,+6V*
G04 #@! TO.C,J2*
G36*
X128282504Y-43561204D02*
X128306773Y-43564804D01*
X128330571Y-43570765D01*
X128353671Y-43579030D01*
X128375849Y-43589520D01*
X128396893Y-43602133D01*
X128416598Y-43616747D01*
X128434777Y-43633223D01*
X128451253Y-43651402D01*
X128465867Y-43671107D01*
X128478480Y-43692151D01*
X128488970Y-43714329D01*
X128497235Y-43737429D01*
X128503196Y-43761227D01*
X128506796Y-43785496D01*
X128508000Y-43810000D01*
X128508000Y-45010000D01*
X128506796Y-45034504D01*
X128503196Y-45058773D01*
X128497235Y-45082571D01*
X128488970Y-45105671D01*
X128478480Y-45127849D01*
X128465867Y-45148893D01*
X128451253Y-45168598D01*
X128434777Y-45186777D01*
X128416598Y-45203253D01*
X128396893Y-45217867D01*
X128375849Y-45230480D01*
X128353671Y-45240970D01*
X128330571Y-45249235D01*
X128306773Y-45255196D01*
X128282504Y-45258796D01*
X128258000Y-45260000D01*
X126758000Y-45260000D01*
X126733496Y-45258796D01*
X126709227Y-45255196D01*
X126685429Y-45249235D01*
X126662329Y-45240970D01*
X126640151Y-45230480D01*
X126619107Y-45217867D01*
X126599402Y-45203253D01*
X126581223Y-45186777D01*
X126564747Y-45168598D01*
X126550133Y-45148893D01*
X126537520Y-45127849D01*
X126527030Y-45105671D01*
X126518765Y-45082571D01*
X126512804Y-45058773D01*
X126509204Y-45034504D01*
X126508000Y-45010000D01*
X126508000Y-43810000D01*
X126509204Y-43785496D01*
X126512804Y-43761227D01*
X126518765Y-43737429D01*
X126527030Y-43714329D01*
X126537520Y-43692151D01*
X126550133Y-43671107D01*
X126564747Y-43651402D01*
X126581223Y-43633223D01*
X126599402Y-43616747D01*
X126619107Y-43602133D01*
X126640151Y-43589520D01*
X126662329Y-43579030D01*
X126685429Y-43570765D01*
X126709227Y-43564804D01*
X126733496Y-43561204D01*
X126758000Y-43560000D01*
X128258000Y-43560000D01*
X128282504Y-43561204D01*
X128282504Y-43561204D01*
G37*
D22*
G04 #@! TD*
G04 #@! TO.P,J2,1*
G04 #@! TO.N,+6V*
X127508000Y-44410000D03*
D23*
G04 #@! TO.P,J2,2*
G04 #@! TO.N,GND*
X127508000Y-41910000D03*
G04 #@! TD*
D10*
G04 #@! TO.N,Net-(J3-Pad1)*
G04 #@! TO.C,J3*
G36*
X143452504Y-35348204D02*
X143476773Y-35351804D01*
X143500571Y-35357765D01*
X143523671Y-35366030D01*
X143545849Y-35376520D01*
X143566893Y-35389133D01*
X143586598Y-35403747D01*
X143604777Y-35420223D01*
X143621253Y-35438402D01*
X143635867Y-35458107D01*
X143648480Y-35479151D01*
X143658970Y-35501329D01*
X143667235Y-35524429D01*
X143673196Y-35548227D01*
X143676796Y-35572496D01*
X143678000Y-35597000D01*
X143678000Y-37047000D01*
X143676796Y-37071504D01*
X143673196Y-37095773D01*
X143667235Y-37119571D01*
X143658970Y-37142671D01*
X143648480Y-37164849D01*
X143635867Y-37185893D01*
X143621253Y-37205598D01*
X143604777Y-37223777D01*
X143586598Y-37240253D01*
X143566893Y-37254867D01*
X143545849Y-37267480D01*
X143523671Y-37277970D01*
X143500571Y-37286235D01*
X143476773Y-37292196D01*
X143452504Y-37295796D01*
X143428000Y-37297000D01*
X142228000Y-37297000D01*
X142203496Y-37295796D01*
X142179227Y-37292196D01*
X142155429Y-37286235D01*
X142132329Y-37277970D01*
X142110151Y-37267480D01*
X142089107Y-37254867D01*
X142069402Y-37240253D01*
X142051223Y-37223777D01*
X142034747Y-37205598D01*
X142020133Y-37185893D01*
X142007520Y-37164849D01*
X141997030Y-37142671D01*
X141988765Y-37119571D01*
X141982804Y-37095773D01*
X141979204Y-37071504D01*
X141978000Y-37047000D01*
X141978000Y-35597000D01*
X141979204Y-35572496D01*
X141982804Y-35548227D01*
X141988765Y-35524429D01*
X141997030Y-35501329D01*
X142007520Y-35479151D01*
X142020133Y-35458107D01*
X142034747Y-35438402D01*
X142051223Y-35420223D01*
X142069402Y-35403747D01*
X142089107Y-35389133D01*
X142110151Y-35376520D01*
X142132329Y-35366030D01*
X142155429Y-35357765D01*
X142179227Y-35351804D01*
X142203496Y-35348204D01*
X142228000Y-35347000D01*
X143428000Y-35347000D01*
X143452504Y-35348204D01*
X143452504Y-35348204D01*
G37*
D22*
G04 #@! TD*
G04 #@! TO.P,J3,1*
G04 #@! TO.N,Net-(J3-Pad1)*
X142828000Y-36322000D03*
D24*
G04 #@! TO.P,J3,2*
G04 #@! TO.N,Earth*
X145328000Y-36322000D03*
G04 #@! TO.P,J3,3*
G04 #@! TO.N,GND*
X147828000Y-36322000D03*
G04 #@! TD*
G04 #@! TO.P,J4,3*
G04 #@! TO.N,GND*
X147828000Y-52070000D03*
G04 #@! TO.P,J4,2*
G04 #@! TO.N,B_TUT*
X145328000Y-52070000D03*
D10*
G04 #@! TD*
G04 #@! TO.N,Net-(J4-Pad1)*
G04 #@! TO.C,J4*
G36*
X143452504Y-51096204D02*
X143476773Y-51099804D01*
X143500571Y-51105765D01*
X143523671Y-51114030D01*
X143545849Y-51124520D01*
X143566893Y-51137133D01*
X143586598Y-51151747D01*
X143604777Y-51168223D01*
X143621253Y-51186402D01*
X143635867Y-51206107D01*
X143648480Y-51227151D01*
X143658970Y-51249329D01*
X143667235Y-51272429D01*
X143673196Y-51296227D01*
X143676796Y-51320496D01*
X143678000Y-51345000D01*
X143678000Y-52795000D01*
X143676796Y-52819504D01*
X143673196Y-52843773D01*
X143667235Y-52867571D01*
X143658970Y-52890671D01*
X143648480Y-52912849D01*
X143635867Y-52933893D01*
X143621253Y-52953598D01*
X143604777Y-52971777D01*
X143586598Y-52988253D01*
X143566893Y-53002867D01*
X143545849Y-53015480D01*
X143523671Y-53025970D01*
X143500571Y-53034235D01*
X143476773Y-53040196D01*
X143452504Y-53043796D01*
X143428000Y-53045000D01*
X142228000Y-53045000D01*
X142203496Y-53043796D01*
X142179227Y-53040196D01*
X142155429Y-53034235D01*
X142132329Y-53025970D01*
X142110151Y-53015480D01*
X142089107Y-53002867D01*
X142069402Y-52988253D01*
X142051223Y-52971777D01*
X142034747Y-52953598D01*
X142020133Y-52933893D01*
X142007520Y-52912849D01*
X141997030Y-52890671D01*
X141988765Y-52867571D01*
X141982804Y-52843773D01*
X141979204Y-52819504D01*
X141978000Y-52795000D01*
X141978000Y-51345000D01*
X141979204Y-51320496D01*
X141982804Y-51296227D01*
X141988765Y-51272429D01*
X141997030Y-51249329D01*
X142007520Y-51227151D01*
X142020133Y-51206107D01*
X142034747Y-51186402D01*
X142051223Y-51168223D01*
X142069402Y-51151747D01*
X142089107Y-51137133D01*
X142110151Y-51124520D01*
X142132329Y-51114030D01*
X142155429Y-51105765D01*
X142179227Y-51099804D01*
X142203496Y-51096204D01*
X142228000Y-51095000D01*
X143428000Y-51095000D01*
X143452504Y-51096204D01*
X143452504Y-51096204D01*
G37*
D22*
G04 #@! TO.P,J4,1*
G04 #@! TO.N,Net-(J4-Pad1)*
X142828000Y-52070000D03*
G04 #@! TD*
D25*
G04 #@! TO.P,Q1,1*
G04 #@! TO.N,T*
X121158000Y-68072000D03*
D26*
G04 #@! TO.P,Q1,3*
G04 #@! TO.N,GND*
X121158000Y-65532000D03*
G04 #@! TO.P,Q1,2*
G04 #@! TO.N,Net-(C1-Pad2)*
X121158000Y-66802000D03*
G04 #@! TD*
D25*
G04 #@! TO.P,Q2,1*
G04 #@! TO.N,Net-(C1-Pad1)*
X133604000Y-68072000D03*
D26*
G04 #@! TO.P,Q2,3*
G04 #@! TO.N,GND*
X133604000Y-65532000D03*
G04 #@! TO.P,Q2,2*
G04 #@! TO.N,Net-(C2-Pad1)*
X133604000Y-66802000D03*
G04 #@! TD*
D27*
G04 #@! TO.P,Q3,2*
G04 #@! TO.N,Net-(C6-Pad2)*
X138176000Y-65532000D03*
G04 #@! TO.P,Q3,3*
G04 #@! TO.N,Net-(C4-Pad2)*
X139446000Y-65532000D03*
D28*
G04 #@! TO.P,Q3,1*
G04 #@! TO.N,GND*
X136906000Y-65532000D03*
G04 #@! TD*
D27*
G04 #@! TO.P,Q4,2*
G04 #@! TO.N,Net-(Q4-Pad2)*
X143764000Y-65532000D03*
G04 #@! TO.P,Q4,3*
G04 #@! TO.N,Net-(C6-Pad2)*
X145034000Y-65532000D03*
D28*
G04 #@! TO.P,Q4,1*
G04 #@! TO.N,Net-(Q4-Pad1)*
X142494000Y-65532000D03*
G04 #@! TD*
G04 #@! TO.P,Q5,1*
G04 #@! TO.N,Net-(Q4-Pad2)*
X145034000Y-59182000D03*
D27*
G04 #@! TO.P,Q5,3*
G04 #@! TO.N,+6V*
X142494000Y-59182000D03*
G04 #@! TO.P,Q5,2*
G04 #@! TO.N,Net-(Q4-Pad1)*
X143764000Y-59182000D03*
G04 #@! TD*
D26*
G04 #@! TO.P,Q6,2*
G04 #@! TO.N,+6V*
X132080000Y-60452000D03*
G04 #@! TO.P,Q6,3*
G04 #@! TO.N,Net-(J3-Pad1)*
X132080000Y-59182000D03*
D25*
G04 #@! TO.P,Q6,1*
G04 #@! TO.N,TY*
X132080000Y-61722000D03*
G04 #@! TD*
D10*
G04 #@! TO.N,Net-(C1-Pad2)*
G04 #@! TO.C,R1*
G36*
X121638142Y-69950174D02*
X121661803Y-69953684D01*
X121685007Y-69959496D01*
X121707529Y-69967554D01*
X121729153Y-69977782D01*
X121749670Y-69990079D01*
X121768883Y-70004329D01*
X121786607Y-70020393D01*
X121802671Y-70038117D01*
X121816921Y-70057330D01*
X121829218Y-70077847D01*
X121839446Y-70099471D01*
X121847504Y-70121993D01*
X121853316Y-70145197D01*
X121856826Y-70168858D01*
X121858000Y-70192750D01*
X121858000Y-70680250D01*
X121856826Y-70704142D01*
X121853316Y-70727803D01*
X121847504Y-70751007D01*
X121839446Y-70773529D01*
X121829218Y-70795153D01*
X121816921Y-70815670D01*
X121802671Y-70834883D01*
X121786607Y-70852607D01*
X121768883Y-70868671D01*
X121749670Y-70882921D01*
X121729153Y-70895218D01*
X121707529Y-70905446D01*
X121685007Y-70913504D01*
X121661803Y-70919316D01*
X121638142Y-70922826D01*
X121614250Y-70924000D01*
X120701750Y-70924000D01*
X120677858Y-70922826D01*
X120654197Y-70919316D01*
X120630993Y-70913504D01*
X120608471Y-70905446D01*
X120586847Y-70895218D01*
X120566330Y-70882921D01*
X120547117Y-70868671D01*
X120529393Y-70852607D01*
X120513329Y-70834883D01*
X120499079Y-70815670D01*
X120486782Y-70795153D01*
X120476554Y-70773529D01*
X120468496Y-70751007D01*
X120462684Y-70727803D01*
X120459174Y-70704142D01*
X120458000Y-70680250D01*
X120458000Y-70192750D01*
X120459174Y-70168858D01*
X120462684Y-70145197D01*
X120468496Y-70121993D01*
X120476554Y-70099471D01*
X120486782Y-70077847D01*
X120499079Y-70057330D01*
X120513329Y-70038117D01*
X120529393Y-70020393D01*
X120547117Y-70004329D01*
X120566330Y-69990079D01*
X120586847Y-69977782D01*
X120608471Y-69967554D01*
X120630993Y-69959496D01*
X120654197Y-69953684D01*
X120677858Y-69950174D01*
X120701750Y-69949000D01*
X121614250Y-69949000D01*
X121638142Y-69950174D01*
X121638142Y-69950174D01*
G37*
D29*
G04 #@! TD*
G04 #@! TO.P,R1,2*
G04 #@! TO.N,Net-(C1-Pad2)*
X121158000Y-70436500D03*
D10*
G04 #@! TO.N,+6V*
G04 #@! TO.C,R1*
G36*
X121638142Y-71825174D02*
X121661803Y-71828684D01*
X121685007Y-71834496D01*
X121707529Y-71842554D01*
X121729153Y-71852782D01*
X121749670Y-71865079D01*
X121768883Y-71879329D01*
X121786607Y-71895393D01*
X121802671Y-71913117D01*
X121816921Y-71932330D01*
X121829218Y-71952847D01*
X121839446Y-71974471D01*
X121847504Y-71996993D01*
X121853316Y-72020197D01*
X121856826Y-72043858D01*
X121858000Y-72067750D01*
X121858000Y-72555250D01*
X121856826Y-72579142D01*
X121853316Y-72602803D01*
X121847504Y-72626007D01*
X121839446Y-72648529D01*
X121829218Y-72670153D01*
X121816921Y-72690670D01*
X121802671Y-72709883D01*
X121786607Y-72727607D01*
X121768883Y-72743671D01*
X121749670Y-72757921D01*
X121729153Y-72770218D01*
X121707529Y-72780446D01*
X121685007Y-72788504D01*
X121661803Y-72794316D01*
X121638142Y-72797826D01*
X121614250Y-72799000D01*
X120701750Y-72799000D01*
X120677858Y-72797826D01*
X120654197Y-72794316D01*
X120630993Y-72788504D01*
X120608471Y-72780446D01*
X120586847Y-72770218D01*
X120566330Y-72757921D01*
X120547117Y-72743671D01*
X120529393Y-72727607D01*
X120513329Y-72709883D01*
X120499079Y-72690670D01*
X120486782Y-72670153D01*
X120476554Y-72648529D01*
X120468496Y-72626007D01*
X120462684Y-72602803D01*
X120459174Y-72579142D01*
X120458000Y-72555250D01*
X120458000Y-72067750D01*
X120459174Y-72043858D01*
X120462684Y-72020197D01*
X120468496Y-71996993D01*
X120476554Y-71974471D01*
X120486782Y-71952847D01*
X120499079Y-71932330D01*
X120513329Y-71913117D01*
X120529393Y-71895393D01*
X120547117Y-71879329D01*
X120566330Y-71865079D01*
X120586847Y-71852782D01*
X120608471Y-71842554D01*
X120630993Y-71834496D01*
X120654197Y-71828684D01*
X120677858Y-71825174D01*
X120701750Y-71824000D01*
X121614250Y-71824000D01*
X121638142Y-71825174D01*
X121638142Y-71825174D01*
G37*
D29*
G04 #@! TD*
G04 #@! TO.P,R1,1*
G04 #@! TO.N,+6V*
X121158000Y-72311500D03*
D10*
G04 #@! TO.N,+6V*
G04 #@! TO.C,R4*
G36*
X130528142Y-68444674D02*
X130551803Y-68448184D01*
X130575007Y-68453996D01*
X130597529Y-68462054D01*
X130619153Y-68472282D01*
X130639670Y-68484579D01*
X130658883Y-68498829D01*
X130676607Y-68514893D01*
X130692671Y-68532617D01*
X130706921Y-68551830D01*
X130719218Y-68572347D01*
X130729446Y-68593971D01*
X130737504Y-68616493D01*
X130743316Y-68639697D01*
X130746826Y-68663358D01*
X130748000Y-68687250D01*
X130748000Y-69174750D01*
X130746826Y-69198642D01*
X130743316Y-69222303D01*
X130737504Y-69245507D01*
X130729446Y-69268029D01*
X130719218Y-69289653D01*
X130706921Y-69310170D01*
X130692671Y-69329383D01*
X130676607Y-69347107D01*
X130658883Y-69363171D01*
X130639670Y-69377421D01*
X130619153Y-69389718D01*
X130597529Y-69399946D01*
X130575007Y-69408004D01*
X130551803Y-69413816D01*
X130528142Y-69417326D01*
X130504250Y-69418500D01*
X129591750Y-69418500D01*
X129567858Y-69417326D01*
X129544197Y-69413816D01*
X129520993Y-69408004D01*
X129498471Y-69399946D01*
X129476847Y-69389718D01*
X129456330Y-69377421D01*
X129437117Y-69363171D01*
X129419393Y-69347107D01*
X129403329Y-69329383D01*
X129389079Y-69310170D01*
X129376782Y-69289653D01*
X129366554Y-69268029D01*
X129358496Y-69245507D01*
X129352684Y-69222303D01*
X129349174Y-69198642D01*
X129348000Y-69174750D01*
X129348000Y-68687250D01*
X129349174Y-68663358D01*
X129352684Y-68639697D01*
X129358496Y-68616493D01*
X129366554Y-68593971D01*
X129376782Y-68572347D01*
X129389079Y-68551830D01*
X129403329Y-68532617D01*
X129419393Y-68514893D01*
X129437117Y-68498829D01*
X129456330Y-68484579D01*
X129476847Y-68472282D01*
X129498471Y-68462054D01*
X129520993Y-68453996D01*
X129544197Y-68448184D01*
X129567858Y-68444674D01*
X129591750Y-68443500D01*
X130504250Y-68443500D01*
X130528142Y-68444674D01*
X130528142Y-68444674D01*
G37*
D29*
G04 #@! TD*
G04 #@! TO.P,R4,1*
G04 #@! TO.N,+6V*
X130048000Y-68931000D03*
D10*
G04 #@! TO.N,Net-(C2-Pad1)*
G04 #@! TO.C,R4*
G36*
X130528142Y-66569674D02*
X130551803Y-66573184D01*
X130575007Y-66578996D01*
X130597529Y-66587054D01*
X130619153Y-66597282D01*
X130639670Y-66609579D01*
X130658883Y-66623829D01*
X130676607Y-66639893D01*
X130692671Y-66657617D01*
X130706921Y-66676830D01*
X130719218Y-66697347D01*
X130729446Y-66718971D01*
X130737504Y-66741493D01*
X130743316Y-66764697D01*
X130746826Y-66788358D01*
X130748000Y-66812250D01*
X130748000Y-67299750D01*
X130746826Y-67323642D01*
X130743316Y-67347303D01*
X130737504Y-67370507D01*
X130729446Y-67393029D01*
X130719218Y-67414653D01*
X130706921Y-67435170D01*
X130692671Y-67454383D01*
X130676607Y-67472107D01*
X130658883Y-67488171D01*
X130639670Y-67502421D01*
X130619153Y-67514718D01*
X130597529Y-67524946D01*
X130575007Y-67533004D01*
X130551803Y-67538816D01*
X130528142Y-67542326D01*
X130504250Y-67543500D01*
X129591750Y-67543500D01*
X129567858Y-67542326D01*
X129544197Y-67538816D01*
X129520993Y-67533004D01*
X129498471Y-67524946D01*
X129476847Y-67514718D01*
X129456330Y-67502421D01*
X129437117Y-67488171D01*
X129419393Y-67472107D01*
X129403329Y-67454383D01*
X129389079Y-67435170D01*
X129376782Y-67414653D01*
X129366554Y-67393029D01*
X129358496Y-67370507D01*
X129352684Y-67347303D01*
X129349174Y-67323642D01*
X129348000Y-67299750D01*
X129348000Y-66812250D01*
X129349174Y-66788358D01*
X129352684Y-66764697D01*
X129358496Y-66741493D01*
X129366554Y-66718971D01*
X129376782Y-66697347D01*
X129389079Y-66676830D01*
X129403329Y-66657617D01*
X129419393Y-66639893D01*
X129437117Y-66623829D01*
X129456330Y-66609579D01*
X129476847Y-66597282D01*
X129498471Y-66587054D01*
X129520993Y-66578996D01*
X129544197Y-66573184D01*
X129567858Y-66569674D01*
X129591750Y-66568500D01*
X130504250Y-66568500D01*
X130528142Y-66569674D01*
X130528142Y-66569674D01*
G37*
D29*
G04 #@! TD*
G04 #@! TO.P,R4,2*
G04 #@! TO.N,Net-(C2-Pad1)*
X130048000Y-67056000D03*
D10*
G04 #@! TO.N,Net-(C2-Pad1)*
G04 #@! TO.C,R5*
G36*
X129258142Y-63697174D02*
X129281803Y-63700684D01*
X129305007Y-63706496D01*
X129327529Y-63714554D01*
X129349153Y-63724782D01*
X129369670Y-63737079D01*
X129388883Y-63751329D01*
X129406607Y-63767393D01*
X129422671Y-63785117D01*
X129436921Y-63804330D01*
X129449218Y-63824847D01*
X129459446Y-63846471D01*
X129467504Y-63868993D01*
X129473316Y-63892197D01*
X129476826Y-63915858D01*
X129478000Y-63939750D01*
X129478000Y-64427250D01*
X129476826Y-64451142D01*
X129473316Y-64474803D01*
X129467504Y-64498007D01*
X129459446Y-64520529D01*
X129449218Y-64542153D01*
X129436921Y-64562670D01*
X129422671Y-64581883D01*
X129406607Y-64599607D01*
X129388883Y-64615671D01*
X129369670Y-64629921D01*
X129349153Y-64642218D01*
X129327529Y-64652446D01*
X129305007Y-64660504D01*
X129281803Y-64666316D01*
X129258142Y-64669826D01*
X129234250Y-64671000D01*
X128321750Y-64671000D01*
X128297858Y-64669826D01*
X128274197Y-64666316D01*
X128250993Y-64660504D01*
X128228471Y-64652446D01*
X128206847Y-64642218D01*
X128186330Y-64629921D01*
X128167117Y-64615671D01*
X128149393Y-64599607D01*
X128133329Y-64581883D01*
X128119079Y-64562670D01*
X128106782Y-64542153D01*
X128096554Y-64520529D01*
X128088496Y-64498007D01*
X128082684Y-64474803D01*
X128079174Y-64451142D01*
X128078000Y-64427250D01*
X128078000Y-63939750D01*
X128079174Y-63915858D01*
X128082684Y-63892197D01*
X128088496Y-63868993D01*
X128096554Y-63846471D01*
X128106782Y-63824847D01*
X128119079Y-63804330D01*
X128133329Y-63785117D01*
X128149393Y-63767393D01*
X128167117Y-63751329D01*
X128186330Y-63737079D01*
X128206847Y-63724782D01*
X128228471Y-63714554D01*
X128250993Y-63706496D01*
X128274197Y-63700684D01*
X128297858Y-63697174D01*
X128321750Y-63696000D01*
X129234250Y-63696000D01*
X129258142Y-63697174D01*
X129258142Y-63697174D01*
G37*
D29*
G04 #@! TD*
G04 #@! TO.P,R5,2*
G04 #@! TO.N,Net-(C2-Pad1)*
X128778000Y-64183500D03*
D10*
G04 #@! TO.N,TY*
G04 #@! TO.C,R5*
G36*
X129258142Y-61822174D02*
X129281803Y-61825684D01*
X129305007Y-61831496D01*
X129327529Y-61839554D01*
X129349153Y-61849782D01*
X129369670Y-61862079D01*
X129388883Y-61876329D01*
X129406607Y-61892393D01*
X129422671Y-61910117D01*
X129436921Y-61929330D01*
X129449218Y-61949847D01*
X129459446Y-61971471D01*
X129467504Y-61993993D01*
X129473316Y-62017197D01*
X129476826Y-62040858D01*
X129478000Y-62064750D01*
X129478000Y-62552250D01*
X129476826Y-62576142D01*
X129473316Y-62599803D01*
X129467504Y-62623007D01*
X129459446Y-62645529D01*
X129449218Y-62667153D01*
X129436921Y-62687670D01*
X129422671Y-62706883D01*
X129406607Y-62724607D01*
X129388883Y-62740671D01*
X129369670Y-62754921D01*
X129349153Y-62767218D01*
X129327529Y-62777446D01*
X129305007Y-62785504D01*
X129281803Y-62791316D01*
X129258142Y-62794826D01*
X129234250Y-62796000D01*
X128321750Y-62796000D01*
X128297858Y-62794826D01*
X128274197Y-62791316D01*
X128250993Y-62785504D01*
X128228471Y-62777446D01*
X128206847Y-62767218D01*
X128186330Y-62754921D01*
X128167117Y-62740671D01*
X128149393Y-62724607D01*
X128133329Y-62706883D01*
X128119079Y-62687670D01*
X128106782Y-62667153D01*
X128096554Y-62645529D01*
X128088496Y-62623007D01*
X128082684Y-62599803D01*
X128079174Y-62576142D01*
X128078000Y-62552250D01*
X128078000Y-62064750D01*
X128079174Y-62040858D01*
X128082684Y-62017197D01*
X128088496Y-61993993D01*
X128096554Y-61971471D01*
X128106782Y-61949847D01*
X128119079Y-61929330D01*
X128133329Y-61910117D01*
X128149393Y-61892393D01*
X128167117Y-61876329D01*
X128186330Y-61862079D01*
X128206847Y-61849782D01*
X128228471Y-61839554D01*
X128250993Y-61831496D01*
X128274197Y-61825684D01*
X128297858Y-61822174D01*
X128321750Y-61821000D01*
X129234250Y-61821000D01*
X129258142Y-61822174D01*
X129258142Y-61822174D01*
G37*
D29*
G04 #@! TD*
G04 #@! TO.P,R5,1*
G04 #@! TO.N,TY*
X128778000Y-62308500D03*
D18*
G04 #@! TO.P,R7,1*
G04 #@! TO.N,+6V*
X118872000Y-46990000D03*
D19*
G04 #@! TO.P,R7,2*
G04 #@! TO.N,Net-(C8-Pad1)*
X118872000Y-54610000D03*
G04 #@! TD*
G04 #@! TO.P,R8,2*
G04 #@! TO.N,GND*
X134366000Y-52070000D03*
D18*
G04 #@! TO.P,R8,1*
G04 #@! TO.N,Net-(C8-Pad1)*
X126746000Y-52070000D03*
G04 #@! TD*
D19*
G04 #@! TO.P,R9,2*
G04 #@! TO.N,Net-(Q4-Pad1)*
X150876000Y-70358000D03*
D18*
G04 #@! TO.P,R9,1*
G04 #@! TO.N,GND*
X143256000Y-70358000D03*
G04 #@! TD*
G04 #@! TO.P,R10,1*
G04 #@! TO.N,Net-(J3-Pad1)*
X133858000Y-45466000D03*
D19*
G04 #@! TO.P,R10,2*
G04 #@! TO.N,Net-(J4-Pad1)*
X141478000Y-45466000D03*
G04 #@! TD*
D30*
G04 #@! TO.P,T1,2*
G04 #@! TO.N,Net-(J1-Pad1)*
X71374000Y-41910000D03*
G04 #@! TO.P,T1,4*
G04 #@! TO.N,Net-(D1-Pad3)*
X96774000Y-67310000D03*
G04 #@! TO.P,T1,3*
G04 #@! TO.N,Net-(D1-Pad4)*
X96774000Y-57150000D03*
G04 #@! TO.P,T1,1*
G04 #@! TO.N,Net-(J1-Pad2)*
X71374000Y-62230000D03*
G04 #@! TO.P,T1,*
G04 #@! TO.N,*
X71374000Y-67310000D03*
X71374000Y-57150000D03*
X71374000Y-52070000D03*
X71374000Y-46990000D03*
X96774000Y-62230000D03*
X96774000Y-52070000D03*
X96774000Y-46990000D03*
X96774000Y-41910000D03*
G04 #@! TD*
D16*
G04 #@! TO.P,U1,1*
G04 #@! TO.N,Net-(C8-Pad1)*
X113284000Y-54610000D03*
D17*
G04 #@! TO.P,U1,2*
G04 #@! TO.N,+6V*
X113284000Y-52070000D03*
G04 #@! TO.P,U1,3*
G04 #@! TO.N,VCC*
X113284000Y-49530000D03*
G04 #@! TD*
D31*
G04 #@! TO.N,Net-(C1-Pad2)*
X119126000Y-68326000D03*
G04 #@! TO.N,Net-(C1-Pad1)*
X127000000Y-68326000D03*
G04 #@! TO.N,Net-(C2-Pad1)*
X131826000Y-66802000D03*
X128741000Y-69845347D03*
G04 #@! TO.N,+6V*
X130048000Y-70612000D03*
X127254000Y-62230000D03*
X122936000Y-72136000D03*
G04 #@! TO.N,TY*
X130302000Y-62230000D03*
G04 #@! TO.N,GND*
X120396000Y-63246000D03*
X116586000Y-63754000D03*
X135636000Y-68834000D03*
X135382000Y-64516000D03*
X135382000Y-54102000D03*
X143764000Y-54356000D03*
X147320000Y-54356000D03*
X130810000Y-42164000D03*
X133604000Y-49022000D03*
G04 #@! TO.N,Net-(J3-Pad1)*
X131064000Y-49276000D03*
X131318000Y-54864000D03*
G04 #@! TO.N,B_TUT*
X140208000Y-60452000D03*
X145288000Y-55880000D03*
G04 #@! TO.N,Net-(Q4-Pad1)*
X142748000Y-64262000D03*
X143764000Y-60960000D03*
G04 #@! TD*
D32*
G04 #@! TO.N,Net-(C1-Pad2)*
X123111500Y-70436500D02*
X121158000Y-70436500D01*
X125730000Y-66776500D02*
X124485500Y-66776500D01*
X124485500Y-66776500D02*
X123698000Y-67564000D01*
X123698000Y-67564000D02*
X123698000Y-69850000D01*
X123698000Y-69850000D02*
X123111500Y-70436500D01*
X121158000Y-70436500D02*
X119966500Y-70436500D01*
X119966500Y-70436500D02*
X119126000Y-69596000D01*
X119126000Y-69596000D02*
X119126000Y-68326000D01*
G04 #@! TO.N,Net-(C1-Pad1)*
X126974500Y-68351500D02*
X127000000Y-68326000D01*
X125730000Y-68351500D02*
X126974500Y-68351500D01*
G04 #@! TO.N,Net-(C2-Pad1)*
X128778000Y-65786000D02*
X128778000Y-64183500D01*
X130048000Y-67056000D02*
X128778000Y-65786000D01*
X130302000Y-66802000D02*
X130048000Y-67056000D01*
X131826000Y-66802000D02*
X130302000Y-66802000D01*
X128741000Y-69279662D02*
X128778000Y-69242662D01*
X128741000Y-69845347D02*
X128741000Y-69279662D01*
X128778000Y-68326000D02*
X130048000Y-67056000D01*
X128778000Y-69242662D02*
X128778000Y-68326000D01*
G04 #@! TO.N,+6V*
X128016000Y-70358000D02*
X128270000Y-70612000D01*
X130048000Y-70612000D02*
X128270000Y-70612000D01*
D33*
X127254000Y-66294000D02*
X128016000Y-67056000D01*
X127254000Y-62230000D02*
X127254000Y-66294000D01*
D32*
X128016000Y-67056000D02*
X128016000Y-70358000D01*
D33*
X127915999Y-70458001D02*
X127762000Y-70612000D01*
X127915999Y-67156001D02*
X127915999Y-70458001D01*
X128016000Y-67056000D02*
X127915999Y-67156001D01*
D32*
X128270000Y-70612000D02*
X127762000Y-70612000D01*
D33*
X127762000Y-70612000D02*
X128286651Y-70612000D01*
X130048000Y-70612000D02*
X130048000Y-68931000D01*
X127762000Y-70612000D02*
X124968000Y-70612000D01*
D32*
X124968000Y-70612000D02*
X124714000Y-70612000D01*
D33*
X124714000Y-70612000D02*
X124460000Y-70612000D01*
X122760500Y-72311500D02*
X121158000Y-72311500D01*
X124460000Y-70612000D02*
X122936000Y-72136000D01*
X122936000Y-72136000D02*
X122760500Y-72311500D01*
D32*
G04 #@! TO.N,TY*
X130223500Y-62308500D02*
X130302000Y-62230000D01*
X128778000Y-62308500D02*
X130223500Y-62308500D01*
D33*
G04 #@! TO.N,GND*
X117094000Y-63246000D02*
X116586000Y-63754000D01*
X120396000Y-63246000D02*
X117094000Y-63246000D01*
X135382000Y-54102000D02*
X135382000Y-64516000D01*
X135382000Y-68580000D02*
X135636000Y-68834000D01*
X135382000Y-64516000D02*
X135382000Y-68580000D01*
X143764000Y-54356000D02*
X147320000Y-54356000D01*
X130810000Y-42164000D02*
X131572000Y-42926000D01*
X131572000Y-42926000D02*
X131572000Y-46990000D01*
X131572000Y-46990000D02*
X133604000Y-49022000D01*
D32*
G04 #@! TO.N,Net-(J3-Pad1)*
X131064000Y-54610000D02*
X131318000Y-54864000D01*
X131064000Y-49276000D02*
X131064000Y-54610000D01*
G04 #@! TO.N,B_TUT*
X140208000Y-59690000D02*
X144018000Y-55880000D01*
X144018000Y-55880000D02*
X145288000Y-55880000D01*
X140208000Y-60452000D02*
X140208000Y-59690000D01*
G04 #@! TO.N,Net-(Q4-Pad1)*
X143764000Y-63246000D02*
X143764000Y-60960000D01*
X142748000Y-64262000D02*
X143764000Y-63246000D01*
G04 #@! TD*
M02*
